<?xml version="1.0" standalone="no"?>
<!DOCTYPE svg PUBLIC "-//W3C//DTD SVG 1.1//EN" "http://www.w3.org/Graphics/SVG/1.1/DTD/svg11.dtd" >
<svg xmlns="http://www.w3.org/2000/svg">
<metadata>
Created by FontPrep 20130207 at Fri Aug  1 16:06:50 2014
 By Andy White
(c) 1989, 1995, 2002 Adobe Systems Incorporated. All rights reserved.
</metadata>
<defs>
<font id="2d55e36446b90be6f85f84e74f83cb6c" horiz-adv-x='1024' >
  <font-face 
    font-family="AvenirLTStd-Black"
    font-weight="750"
    font-stretch="normal"
    units-per-em="2048"
    panose-1="2 11 8 3 2 2 3 2 2 4"
    ascent="1548"
    descent="-500"
    x-height="995"
    cap-height="1450"
    bbox="-330 -512 2324 1952"
    underline-thickness="102"
    underline-position="-102"
    unicode-range="U+0020-FB02"
  />
<missing-glyph horiz-adv-x="1024" 
d="M102 1239v-1044l349 522zM164 102h696l-348 523zM573 717l349 -522v1044zM512 809l348 522h-696zM0 0v1434h1024v-1434h-1024z" />
    <glyph glyph-name="f_i" unicode="fi" horiz-adv-x="1290" 
d="M215 0v750h-203v245h203v176q0 90 14 156q51 246 367 246q114 0 188 -19l-14 -260q-58 20 -118 20t-95 -33q-35 -34 -35 -128v-158h228v-245h-228v-750h-307zM846 1309q0 74 52 126t126 52t126 -52t52 -126t-52 -126q-52 -53 -126 -53t-126 52t-52 127zM870 0v995h308
v-995h-308z" />
    <glyph glyph-name="f_l" unicode="fl" horiz-adv-x="1290" 
d="M215 0v750h-203v245h203v176q0 90 14 156q51 246 367 246q114 0 188 -19l-14 -260q-58 20 -118 20t-95 -33q-35 -34 -35 -128v-158h228v-245h-228v-750h-307zM870 0v1548h308v-1548h-308z" />
    <glyph glyph-name=".notdef" horiz-adv-x="1024" 
d="M102 1239v-1044l349 522zM164 102h696l-348 523zM573 717l349 -522v1044zM512 809l348 522h-696zM0 0v1434h1024v-1434h-1024z" />
    <glyph glyph-name=".null" horiz-adv-x="0" 
 />
    <glyph glyph-name="nonmarkingreturn" horiz-adv-x="681" 
 />
    <glyph glyph-name="space" unicode=" " 
 />
    <glyph glyph-name="exclam" unicode="!" horiz-adv-x="909" 
d="M266 176q0 78 56 133t133 55q78 0 133 -54q55 -56 55 -134t-55 -133t-133 -55q-77 0 -133 55t-56 133zM608 1450v-971h-307v971h307z" />
    <glyph glyph-name="quotedbl" unicode="&#x22;" horiz-adv-x="1064" 
d="M166 872v578h258v-578h-258zM641 872v578h258v-578h-258z" />
    <glyph glyph-name="numbersign" unicode="#" horiz-adv-x="1212" 
d="M690 596l35 258h-203l-35 -258h203zM92 412v184h197l35 258h-172v184h196l58 412h198l-57 -412h203l57 412h199l-58 -412h172v-184h-196l-35 -258h172v-184h-197l-57 -412h-199l58 412h-203l-57 -412h-199l57 412h-172z" />
    <glyph glyph-name="dollar" unicode="$" horiz-adv-x="1212" 
d="M846 414q0 59 -34 88t-101 53l-39 14v-307q174 35 174 152zM537 899v287q-147 -33 -148 -139q0 -74 43 -102t78 -40zM672 1618v-143q276 0 438 -129l-197 -240q-90 80 -241 86v-326l196 -57q139 -41 218 -136t79 -235q0 -206 -139 -324t-354 -139v-143h-135v143
q-324 0 -506 166l217 244q92 -113 289 -127v346l-150 45q-160 51 -239 141t-78 242q0 184 136 302t331 141v143h135z" />
    <glyph glyph-name="percent" unicode="%" horiz-adv-x="1857" 
d="M430 23l830 1493l172 -97l-846 -1485zM608 1069q0 82 -56 139q-56 58 -138 58t-138 -58t-57 -139q0 -82 56 -139q57 -58 139 -58t138 58t56 139zM10 1069q0 168 118 287t286 119t286 -119t117 -287q0 -168 -118 -287q-117 -118 -285 -118t-286 118t-118 287zM1638 382
q0 83 -56 140q-56 58 -138 58t-138 -58t-56 -140q0 -83 56 -140q56 -58 138 -58t138 58t56 140zM1040 382q0 169 118 288q118 118 286 118t286 -118t118 -288q0 -169 -118 -288t-286 -119t-286 119t-118 288z" />
    <glyph glyph-name="ampersand" unicode="&#x26;" horiz-adv-x="1554" 
d="M626 234q92 0 214 106l-256 278q-57 -35 -83 -53t-55 -60q-28 -43 -28 -107t58 -114t150 -50zM682 1241q-61 0 -101 -37q-40 -38 -40 -104t121 -176q164 94 163 186q0 61 -41 96t-102 35zM600 -37q-214 0 -364 114t-150 320q0 135 87 243t220 153q-84 91 -122 159
t-38 166q-1 184 131 276t317 93q185 0 306 -91t121 -266q0 -121 -75 -218t-193 -158l186 -199l141 193h357l-305 -406l323 -342h-395l-121 137q-168 -174 -426 -174z" />
    <glyph glyph-name="quotesingle" unicode="'" 
d="M174 872v578h258v-578h-258z" />
    <glyph glyph-name="parenleft" unicode="(" horiz-adv-x="643" 
d="M336 590q0 -223 63 -397t201 -390l-211 -122l-4 8q-295 436 -295 901t295 901l4 8l211 -123q-136 -215 -200 -389t-64 -397z" />
    <glyph glyph-name="parenright" unicode=")" horiz-adv-x="643" 
d="M307 590q0 223 -63 397t-201 389l211 123l4 -8q295 -436 295 -901t-295 -901l-4 -8l-211 122q137 215 201 389t63 398z" />
    <glyph glyph-name="asterisk" unicode="*" horiz-adv-x="987" 
d="M600 1450v-283l268 88l62 -194l-268 -86l169 -234l-169 -125l-173 236l-165 -225l-166 125l172 223l-273 94l66 195l268 -97v283h209z" />
    <glyph glyph-name="plus" unicode="+" horiz-adv-x="1363" 
d="M121 492v258h432v432h258v-432h432v-258h-432v-433h-258v433h-432z" />
    <glyph glyph-name="comma" unicode="," 
d="M35 -246l151 578h295l-184 -578h-262z" />
    <glyph glyph-name="hyphen" unicode="-" 
d="M555 633v-246h-504v246h504z" />
    <glyph glyph-name="period" unicode="." 
d="M115 176q0 78 55 133t133 55t133 -54q56 -56 56 -134t-56 -133t-133 -55q-78 0 -133 55t-55 133z" />
    <glyph glyph-name="slash" unicode="/" horiz-adv-x="833" 
d="M-6 -37l612 1596l234 -72l-615 -1596z" />
    <glyph glyph-name="zero" unicode="0" horiz-adv-x="1212" 
d="M375 725q0 -467 231 -467t232 467q0 467 -232 467t-231 -467zM68 725q0 381 162 585q58 72 154 118t222 46q125 0 221 -46t155 -118q160 -201 161 -583q2 -382 -161 -587q-58 -72 -154 -118t-222 -46q-125 0 -221 46t-155 118q-162 204 -162 585z" />
    <glyph glyph-name="one" unicode="1" horiz-adv-x="1212" 
d="M590 0v1106l-291 -256l-174 201l473 399h287v-1450h-295z" />
    <glyph glyph-name="two" unicode="2" horiz-adv-x="1212" 
d="M100 0v326l564 505q45 41 62 59t42 61q25 42 25 83q-1 72 -53 115t-130 43t-128 -51t-56 -133l-307 22q14 217 152 331q139 114 353 114t345 -113t131 -324q0 -129 -48 -218t-143 -171l-440 -379h643v-270h-1012z" />
    <glyph glyph-name="three" unicode="3" horiz-adv-x="1212" 
d="M442 612v267h101q233 0 233 161q0 66 -52 109t-125 43t-121 -38t-62 -97l-338 69q45 180 182 264t340 85q203 -1 343 -103t140 -301q-1 -123 -65 -208t-182 -109v-6q128 -16 200 -112t72 -226q0 -209 -148 -322t-363 -113q-214 -1 -351 93t-180 282l323 76
q33 -168 215 -168q96 0 147 51q50 51 50 135q0 129 -128 156q-66 12 -159 12h-72z" />
    <glyph glyph-name="four" unicode="4" horiz-adv-x="1212" 
d="M682 549v500h-4l-322 -500h326zM682 0v291h-633v258l592 901h336v-901h186v-258h-186v-291h-295z" />
    <glyph glyph-name="five" unicode="5" horiz-adv-x="1212" 
d="M1059 1450v-270h-576l-6 -224q47 16 129 17q222 0 362 -130q140 -129 140 -359t-155 -369t-398 -140q-190 1 -316 95t-173 276l321 74q11 -80 65 -127t142 -47t147 61t59 153t-51 149q-52 57 -122 75q-69 18 -187 18t-274 -53l16 801h877z" />
    <glyph glyph-name="six" unicode="6" horiz-adv-x="1212" 
d="M836 485q0 98 -66 163t-168 65t-168 -65t-66 -163q0 -99 66 -163t168 -64t168 64t66 163zM688 946q201 0 328 -136t127 -347t-155 -349t-386 -138t-386 138t-155 359q0 99 28 191t56 143q29 51 91 147l317 496h375l-340 -518q57 14 100 14z" />
    <glyph glyph-name="seven" unicode="7" horiz-adv-x="1212" 
d="M76 1167v283h1061v-270l-580 -1180h-358l594 1167h-717z" />
    <glyph glyph-name="eight" unicode="8" horiz-adv-x="1212" 
d="M403 441q-1 -77 57 -130t146 -53t146 53q57 53 57 130t-56 130q-57 53 -147 53t-146 -52q-56 -54 -57 -131zM428 1031q0 -69 50 -115t128 -46t128 46t50 115t-50 115t-128 46t-128 -46t-50 -115zM121 1075q0 193 137 296t348 103t348 -102q137 -104 138 -297
q0 -119 -65 -204t-181 -117v-4q131 -35 201 -126t69 -227q0 -201 -147 -311t-363 -111q-216 0 -362 111q-147 111 -148 311q0 135 70 227t201 126v4q-117 33 -182 117q-64 85 -64 204z" />
    <glyph glyph-name="nine" unicode="9" horiz-adv-x="1212" 
d="M377 965q-1 -98 65 -163t168 -65t168 65t66 163q0 99 -66 163t-168 64t-168 -64t-65 -163zM524 504q-202 0 -328 136t-126 347t154 349q155 138 386 138t386 -138t155 -359q0 -99 -28 -191q-29 -92 -57 -143t-89 -147l-318 -496h-374l340 518q-57 -14 -101 -14z" />
    <glyph glyph-name="colon" unicode=":" 
d="M115 831q0 77 55 133t133 56t133 -55q56 -55 56 -133t-56 -134q-56 -55 -133 -55q-78 0 -133 55t-55 133zM115 176q0 78 55 133t133 55t133 -54q56 -56 56 -134t-56 -133t-133 -55q-78 0 -133 55t-55 133z" />
    <glyph glyph-name="semicolon" unicode=";" 
d="M115 831q0 77 55 133t133 56t133 -55q56 -55 56 -133t-56 -134q-56 -55 -133 -55q-78 0 -133 55t-55 133zM35 -246l151 578h295l-184 -578h-262z" />
    <glyph glyph-name="less" unicode="&#x3c;" horiz-adv-x="1363" 
d="M1200 1155v-278l-649 -254v-5l649 -253v-279l-1036 406v258z" />
    <glyph glyph-name="equal" unicode="=" horiz-adv-x="1363" 
d="M121 295v258h1122v-258h-1122zM121 688v258h1122v-258h-1122z" />
    <glyph glyph-name="greater" unicode="&#x3e;" horiz-adv-x="1363" 
d="M164 86v279l649 253v5l-649 254v278l1036 -405v-258z" />
    <glyph glyph-name="question" unicode="?" horiz-adv-x="1138" 
d="M408 176q0 78 55 133t133 55t133 -54q55 -56 55 -134t-55 -133t-133 -55t-133 55t-55 133zM442 479v90q0 115 72 185q38 37 102 94t90 82q72 69 71 133q-1 65 -42 103t-119 38t-132 -51q-52 -51 -58 -131l-315 20q20 213 157 329q136 116 344 116q208 -1 340 -107
t131 -297q0 -117 -54 -203t-200 -200q-80 -61 -79 -141v-60h-308z" />
    <glyph glyph-name="at" unicode="@" horiz-adv-x="1638" 
d="M1145 555q-1 -57 63 -57t116 78t52 227q0 239 -146 369t-394 130t-405 -162q-157 -163 -157 -422t169 -415t416 -156t405 125h225q-109 -150 -274 -230t-355 -79q-332 0 -563 216t-231 543t228 546t554 219q184 0 347 -76q163 -75 271 -233t107 -365q0 -123 -36 -218
t-88 -146t-136 -92t-179 -43q-96 -1 -136 32t-42 78h-4q-106 -111 -250 -111q-144 1 -225 97q-82 96 -82 266t113 306t287 136t231 -117h4l17 93h192l-76 -404q-18 -88 -18 -135zM973 736q0 198 -161 198q-83 0 -139 -73t-57 -181q0 -182 142 -182q117 0 166 72t49 166z" />
    <glyph glyph-name="A" unicode="A" horiz-adv-x="1517" 
d="M926 578l-178 450l-177 -450h355zM-2 0l627 1450h264l631 -1450h-361l-125 307h-563l-121 -307h-352z" />
    <glyph glyph-name="B" unicode="B" horiz-adv-x="1327" 
d="M467 600v-330h287q86 0 149 41t64 129q0 160 -258 160h-242zM467 1180v-310h231q84 0 143 38q58 38 58 120q0 152 -215 152h-217zM147 0v1450h541q380 0 486 -179q45 -77 45 -193t-68 -198t-182 -118v-4q143 -18 230 -116t87 -222q0 -126 -48 -208q-83 -140 -302 -190
q-92 -22 -195 -22h-594z" />
    <glyph glyph-name="C" unicode="C" horiz-adv-x="1402" 
d="M818 1192q-178 0 -298 -132q-119 -132 -119 -334t118 -335q119 -133 303 -133t288 156l266 -199q-88 -125 -228 -188t-296 -64q-344 0 -563 209t-219 553t219 553t563 209q137 0 270 -51t219 -162l-245 -201q-100 119 -278 119z" />
    <glyph glyph-name="D" unicode="D" horiz-adv-x="1554" 
d="M467 1155v-860h166q520 0 520 442q0 203 -141 311t-357 107h-188zM147 0v1450h480q369 0 603 -164q255 -178 255 -581q0 -209 -115 -376t-297 -248t-403 -81h-523z" />
    <glyph glyph-name="E" unicode="E" horiz-adv-x="1290" 
d="M160 0v1450h985v-295h-666v-270h629v-295h-629v-295h703v-295h-1022z" />
    <glyph glyph-name="F" unicode="F" horiz-adv-x="1214" 
d="M160 0v1450h973v-295h-654v-295h604v-295h-604v-565h-319z" />
    <glyph glyph-name="G" unicode="G" horiz-adv-x="1593" 
d="M1460 860v-758q-266 -139 -609 -139t-562 209t-219 553t219 553t579 209t562 -187l-226 -245q-131 137 -343 137t-336 -131t-124 -336t124 -336q123 -131 311 -131t317 72v235h-260v295h567z" />
    <glyph glyph-name="H" unicode="H" horiz-adv-x="1554" 
d="M147 0v1450h320v-541h620v541h320v-1450h-320v627h-620v-627h-320z" />
    <glyph glyph-name="I" unicode="I" 
d="M143 0v1450h320v-1450h-320z" />
    <glyph glyph-name="J" unicode="J" horiz-adv-x="1024" 
d="M897 1450v-965q0 -113 -18 -197q-19 -84 -65 -162q-96 -163 -380 -163q-178 0 -294 84t-150 254l293 72q6 -51 48 -89t90 -38q85 0 121 60t36 214v930h319z" />
    <glyph glyph-name="K" unicode="K" horiz-adv-x="1478" 
d="M160 0v1450h319v-602l563 602h418l-645 -674l701 -776h-447l-590 688v-688h-319z" />
    <glyph glyph-name="L" unicode="L" horiz-adv-x="1099" 
d="M160 0v1450h319v-1155h592v-295h-911z" />
    <glyph glyph-name="M" unicode="M" horiz-adv-x="1933" 
d="M147 0v1450h484l334 -946h4l336 946h481v-1450h-320v1112h-4l-381 -1112h-243l-367 1112h-4v-1112h-320z" />
    <glyph glyph-name="N" unicode="N" horiz-adv-x="1669" 
d="M147 0v1450h435l616 -1008h4v1008h320v-1450h-418l-633 1032h-4v-1032h-320z" />
    <glyph glyph-name="O" unicode="O" horiz-adv-x="1703" 
d="M401 725q0 -205 124 -336t327 -131t327 131t124 336t-124 336t-327 131t-327 -131t-124 -336zM70 725q0 344 219 553t563 209t563 -209t219 -553t-219 -553t-563 -209t-563 209t-219 553z" />
    <glyph glyph-name="P" unicode="P" horiz-adv-x="1290" 
d="M467 1180v-344h213q225 0 225 172t-274 172h-164zM147 0v1450h539q551 0 551 -442t-537 -443h-233v-565h-320z" />
    <glyph glyph-name="Q" unicode="Q" horiz-adv-x="1744" 
d="M401 743q0 -186 130 -317q131 -131 313 -131t312 131t130 317q0 185 -130 317t-312 132t-313 -131q-130 -132 -130 -318zM1735 246v-246h-879q-346 0 -566 200t-220 534t223 543q223 210 551 210t551 -210t223 -534q0 -162 -73 -296t-216 -197v-4h406z" />
    <glyph glyph-name="R" unicode="R" horiz-adv-x="1327" 
d="M467 1180v-330h188q199 0 245 71q24 36 24 91q0 168 -248 168h-209zM147 0v1450h562q547 0 546 -440q1 -156 -81 -264t-232 -134l369 -612h-383l-303 580h-158v-580h-320z" />
    <glyph glyph-name="S" unicode="S" horiz-adv-x="1175" 
d="M624 1192q-72 0 -139 -38t-67 -102q1 -109 132 -156q58 -22 130 -41t144 -48t129 -71t95 -118t37 -178q1 -231 -159 -354t-400 -123q-291 0 -487 182l227 250q49 -63 124 -100t158 -37q82 0 150 40t68 106t-50 110t-126 64q-172 46 -328 124q-76 39 -126 120t-50 194
q0 221 163 346t390 125q272 0 444 -152l-219 -239q-36 48 -102 72t-138 24z" />
    <glyph glyph-name="T" unicode="T" horiz-adv-x="1175" 
d="M428 0v1167h-414v283h1147v-283h-413v-1167h-320z" />
    <glyph glyph-name="U" unicode="U" horiz-adv-x="1517" 
d="M1370 1450v-891q0 -266 -159 -431t-451 -165t-453 165q-160 165 -160 431v891h320v-879q0 -135 83 -224t209 -89t209 90t83 223v879h319z" />
    <glyph glyph-name="V" unicode="V" horiz-adv-x="1441" 
d="M584 0l-580 1450h365l358 -950h4l365 950h342l-598 -1450h-256z" />
    <glyph glyph-name="W" unicode="W" horiz-adv-x="2048" 
d="M426 0l-430 1450h348l231 -930h5l303 930h297l301 -954h4l244 954h323l-424 -1450h-285l-319 1004h-4l-320 -1004h-274z" />
    <glyph glyph-name="X" unicode="X" horiz-adv-x="1478" 
d="M0 0l508 758l-479 692h401l309 -508l297 508h387l-469 -686l525 -764h-402l-354 584l-344 -584h-379z" />
    <glyph glyph-name="Y" unicode="Y" horiz-adv-x="1327" 
d="M504 0v618l-545 832h397l308 -543l325 543h379l-545 -832v-618h-319z" />
    <glyph glyph-name="Z" unicode="Z" horiz-adv-x="1290" 
d="M72 0v295l735 872h-709v283h1096v-283l-721 -872h746v-295h-1147z" />
    <glyph glyph-name="bracketleft" unicode="[" 
d="M565 1499v-184h-184v-1450h184v-184h-430v1818h430z" />
    <glyph glyph-name="backslash" unicode="\" horiz-adv-x="833" 
d="M840 -37l-232 -72l-614 1596l233 72z" />
    <glyph glyph-name="bracketright" unicode="]" 
d="M41 -319v184h184v1450h-184v184h430v-1818h-430z" />
    <glyph glyph-name="asciicircum" unicode="^" horiz-adv-x="1363" 
d="M164 702l368 748h299l369 -748h-291l-227 488l-229 -488h-289z" />
    <glyph glyph-name="underscore" unicode="_" horiz-adv-x="1024" 
d="M1024 -256h-1024v102h1024v-102z" />
    <glyph glyph-name="grave" unicode="`" horiz-adv-x="532" 
d="M268 1450l207 -295h-270l-355 295h418z" />
    <glyph glyph-name="a" unicode="a" horiz-adv-x="1099" 
d="M733 436h-76q-303 0 -303 -143q0 -51 44 -80t121 -29t146 49t68 138v65zM733 0v125h-4q-94 -150 -315 -150q-147 0 -251 82q-103 82 -103 220t87 226q125 122 467 129q47 1 119 1q0 80 -57 129t-139 49q-143 0 -250 -119l-164 168q170 160 432 160t361 -125t100 -389
v-506h-283z" />
    <glyph glyph-name="b" unicode="b" horiz-adv-x="1290" 
d="M420 498q0 -113 66 -183q66 -69 180 -69t180 70t65 182q1 112 -65 182t-180 70t-180 -70t-66 -182zM137 0v1548h307v-659h5q94 131 307 131t338 -157t125 -379q1 -222 -135 -365t-355 -144q-96 -1 -181 47t-124 109h-4v-131h-283z" />
    <glyph glyph-name="c" unicode="c" horiz-adv-x="987" 
d="M622 750q-106 0 -172 -70t-65 -182q0 -112 66 -183q66 -69 167 -69t164 76l203 -213q-131 -133 -361 -133t-388 144t-158 378t159 378t388 144t360 -133l-203 -213q-54 76 -160 76z" />
    <glyph glyph-name="d" unicode="d" horiz-adv-x="1290" 
d="M870 498q0 112 -66 182t-180 70t-180 -70t-66 -182t66 -183q66 -69 181 -69t180 70t65 182zM1153 1548v-1548h-283v131h-4q-39 -61 -124 -108t-181 -48q-219 -1 -354 143t-135 366t125 379t337 157t308 -131h4v659h307z" />
    <glyph glyph-name="e" unicode="e" horiz-adv-x="1175" 
d="M385 610h406q1 78 -53 133t-143 55t-147 -54q-58 -56 -63 -134zM78 498q0 234 159 378t384 144t351 -141t126 -381v-97h-713q19 -88 81 -140t150 -52q132 0 220 121l215 -158q-74 -92 -187 -144t-233 -53q-237 1 -395 145t-158 378z" />
    <glyph glyph-name="f" unicode="f" horiz-adv-x="757" 
d="M215 0v750h-203v245h203v176q0 90 14 156q51 246 367 246q114 0 188 -19l-14 -260q-58 20 -118 20t-95 -33q-35 -34 -35 -128v-158h228v-245h-228v-750h-307z" />
    <glyph glyph-name="g" unicode="g" horiz-adv-x="1290" 
d="M379 504q0 -98 72 -172t174 -74t174 74t71 172q0 98 -71 172q-72 74 -174 74t-174 -74t-72 -172zM1153 995v-911q0 -576 -590 -576q-302 0 -485 146l170 254q152 -129 323 -129q135 1 205 67t70 177v96h-4q-49 -68 -126 -100t-155 -31q-219 0 -354 143t-135 361t126 374
q126 154 328 154q121 0 210 -47t130 -109h4v131h283z" />
    <glyph glyph-name="h" unicode="h" horiz-adv-x="1175" 
d="M109 1548h307v-688h4q25 63 99 112q75 48 179 48q215 0 292 -122t77 -349v-549h-307v487q0 160 -35 205q-39 56 -137 57q-96 1 -134 -68t-38 -185v-496h-307v1548z" />
    <glyph glyph-name="i" unicode="i" horiz-adv-x="532" 
d="M88 1309q0 74 52 126t126 52t126 -52t52 -126t-52 -126q-52 -53 -126 -53t-126 52t-52 127zM113 0v995h307v-995h-307z" />
    <glyph glyph-name="j" unicode="j" horiz-adv-x="532" 
d="M88 1309q0 74 52 126t126 52t126 -52t52 -126t-52 -126q-52 -53 -126 -53t-126 52t-52 127zM420 995v-1069q0 -202 -84 -310t-285 -108q-92 0 -143 17l16 272q37 -18 77 -18q82 0 98 74q14 58 14 127v1015h307z" />
    <glyph glyph-name="k" unicode="k" horiz-adv-x="1138" 
d="M109 0v1548h307v-946l340 393h377l-396 -448l406 -547h-387l-336 504h-4v-504h-307z" />
    <glyph glyph-name="l" unicode="l" horiz-adv-x="532" 
d="M113 0v1548h307v-1548h-307z" />
    <glyph glyph-name="m" unicode="m" horiz-adv-x="1781" 
d="M109 0v995h294v-135h5q35 66 110 113q76 47 180 47q229 0 308 -178q100 178 315 178q352 0 352 -432v-588h-307v580q0 170 -135 170q-186 0 -187 -224v-526h-307v526q0 163 -57 202q-31 22 -80 22q-108 0 -146 -69t-38 -185v-496h-307z" />
    <glyph glyph-name="n" unicode="n" horiz-adv-x="1175" 
d="M109 0v995h294v-135h5q35 66 110 113q76 47 180 47q215 0 292 -122t77 -349v-549h-307v487q0 160 -35 205q-39 56 -137 57q-96 1 -134 -68t-38 -185v-496h-307z" />
    <glyph glyph-name="o" unicode="o" horiz-adv-x="1249" 
d="M379 498q-1 -113 65 -183q66 -69 181 -69t181 70t64 182q0 112 -66 182t-180 70t-180 -70t-65 -182zM72 498q0 233 158 378q159 144 395 144q237 0 395 -144t158 -378t-159 -378t-395 -144t-394 144q-158 145 -158 378z" />
    <glyph glyph-name="p" unicode="p" horiz-adv-x="1290" 
d="M420 498q0 -113 66 -183q66 -69 180 -69t180 70t65 182q1 112 -65 182t-180 70t-180 -70t-66 -182zM137 -467v1462h283v-131h4q39 60 124 108t181 48q219 0 354 -143t135 -365t-124 -380q-125 -157 -338 -157t-307 131h-5v-573h-307z" />
    <glyph glyph-name="q" unicode="q" horiz-adv-x="1290" 
d="M870 498q0 112 -66 182t-180 70t-180 -70t-66 -182t66 -183q66 -69 181 -69t180 70t65 182zM1153 995v-1462h-307v573h-4q-94 -131 -308 -131t-338 157t-124 379q0 221 135 365t354 144q96 0 181 -47t124 -109h4v131h283z" />
    <glyph glyph-name="r" unicode="r" horiz-adv-x="833" 
d="M109 0v995h307v-159h4q100 184 287 184q68 0 102 -10v-281q-160 44 -262 1q-102 -44 -123 -177q-8 -53 -8 -137v-416h-307z" />
    <glyph glyph-name="s" unicode="s" horiz-adv-x="948" 
d="M494 786q-45 0 -79 -20t-34 -57q0 -71 135 -90q135 -20 249 -75q58 -28 96 -90t38 -152t-41 -157q-42 -69 -110 -103q-130 -65 -308 -67q-258 0 -391 136l187 206q90 -109 223 -109t133 73q0 43 -53 65t-129 38q-76 15 -153 40q-77 24 -130 90t-53 170q0 164 123 250
t295 86q245 0 368 -131l-188 -187q-68 84 -178 84z" />
    <glyph glyph-name="t" unicode="t" horiz-adv-x="833" 
d="M786 995v-245h-270v-332q0 -94 27 -139t120 -45t123 28v-256q-84 -31 -232 -31t-246 73q-99 73 -99 228v474h-197v245h197v295h307v-295h270z" />
    <glyph glyph-name="u" unicode="u" horiz-adv-x="1175" 
d="M1067 995v-995h-295v135h-4q-35 -67 -111 -113t-180 -47q-215 0 -292 122t-76 349v549h307v-487q0 -158 37 -210t134 -52t135 68q38 69 38 186v495h307z" />
    <glyph glyph-name="v" unicode="v" horiz-adv-x="1138" 
d="M416 0l-412 995h332l252 -676h4l233 676h310l-394 -995h-325z" />
    <glyph glyph-name="w" unicode="w" horiz-adv-x="1705" 
d="M354 0l-364 995h327l203 -624h4l170 624h336l184 -624h5l186 624h311l-354 -995h-303l-207 662h-4l-184 -662h-310z" />
    <glyph glyph-name="x" unicode="x" horiz-adv-x="1138" 
d="M-16 0l393 532l-332 463h363l176 -270l170 270h342l-324 -463l383 -532h-362l-218 332l-233 -332h-358z" />
    <glyph glyph-name="y" unicode="y" horiz-adv-x="1138" 
d="M1133 995l-451 -1157q-31 -80 -48 -118t-51 -88t-72 -70q-99 -52 -235 -53q-135 -1 -245 36l41 252q72 -31 142 -31t109 24q40 22 55 50t42 94l22 58l-436 1003h332l256 -657h4l219 657h316z" />
    <glyph glyph-name="z" unicode="z" horiz-adv-x="1024" 
d="M70 0v307l516 443h-504v245h860v-295l-541 -454h553v-246h-884z" />
    <glyph glyph-name="braceleft" unicode="{" horiz-adv-x="757" 
d="M729 -86v-233h-215q-116 -1 -190 73t-74 226v352q0 45 -26 76t-83 48t-112 17v234q54 0 112 17q109 32 109 124v354q0 152 72 224t192 73h215v-233h-100q-90 0 -111 -42q-22 -42 -22 -89v-330q0 -136 -73 -175q-59 -31 -132 -38v-4q149 -7 186 -100q18 -44 19 -111v-332
q0 -95 59 -119q29 -12 74 -12h100z" />
    <glyph glyph-name="bar" unicode="|" horiz-adv-x="454" 
d="M98 1536h258v-2048h-258v2048z" />
    <glyph glyph-name="braceright" unicode="}" horiz-adv-x="757" 
d="M29 1266v233h221q114 0 186 -74t72 -225v-352q0 -45 26 -76t82 -48t113 -17v-234q-57 0 -113 -17q-108 -32 -108 -124v-355q0 -153 -72 -225t-192 -71h-215v233h100q91 0 112 42t21 89v330q0 134 66 170t139 43v4q-148 7 -186 99q-18 44 -19 112v332q0 96 -59 118
q-29 12 -74 13h-100z" />
    <glyph glyph-name="asciitilde" unicode="~" horiz-adv-x="1363" 
d="M899 422q-89 0 -271 85q-125 54 -164 54q-40 1 -77 -25t-52 -46t-52 -68l-74 221q92 176 256 176q89 0 271 -85q125 -54 164 -54q40 0 77 26t52 45t52 68l74 -221q-92 -176 -256 -176z" />
    <glyph glyph-name="uni00A0" unicode="&#xa0;" 
 />
    <glyph glyph-name="exclamdown" unicode="&#xa1;" horiz-adv-x="909" 
d="M643 819q0 -78 -55 -133t-133 -55t-133 55t-56 133q0 78 56 133q56 56 133 56q78 0 133 -56t55 -133zM301 -455v971h307v-971h-307z" />
    <glyph glyph-name="cent" unicode="&#xa2;" horiz-adv-x="1212" 
d="M451 500q0 -210 184 -267v529q-90 -18 -137 -90t-47 -172zM635 -166v141q-215 11 -347 159t-132 364t130 356q130 139 349 166v135h123v-135q203 0 352 -127l-197 -209q-76 78 -155 78v-529q80 0 170 89l186 -220q-70 -68 -169 -98t-187 -29v-141h-123z" />
    <glyph glyph-name="sterling" unicode="&#xa3;" horiz-adv-x="1212" 
d="M98 0v233h197v406h-197v209h197v145q0 197 136 339t372 143q274 0 428 -140l-205 -219q-88 88 -200 88t-168 -74t-56 -182v-100h320v-209h-320v-406h518v-233h-1022z" />
    <glyph glyph-name="currency" unicode="&#xa4;" horiz-adv-x="1212" 
d="M344 725q0 -115 77 -195t185 -80t186 80q77 80 76 195q0 115 -76 195q-77 80 -186 80q-110 0 -186 -80t-76 -195zM74 725q0 172 100 311l-100 101l123 120l100 -98q137 98 309 98t309 -98l101 98l123 -120l-101 -101q100 -137 100 -311t-100 -311l101 -101l-123 -120
l-101 98q-137 -98 -309 -98t-309 98l-100 -98l-123 120l100 101q-100 139 -100 311z" />
    <glyph glyph-name="yen" unicode="&#xa5;" horiz-adv-x="1212" 
d="M446 0v324h-346v196h346v98l-24 41h-322v197h205l-379 594h373l307 -541l307 541h373l-379 -594h205v-197h-321l-25 -41v-98h346v-196h-346v-324h-320z" />
    <glyph glyph-name="brokenbar" unicode="&#xa6;" horiz-adv-x="454" 
d="M98 358h258v-716h-258v716zM98 1382h258v-716h-258v716z" />
    <glyph glyph-name="section" unicode="&#xa7;" horiz-adv-x="1212" 
d="M836 521q0 87 -134 145l-237 112q-72 -41 -72 -117t52 -110q52 -35 112 -62l209 -96q70 41 70 128zM618 1241q-58 0 -99 -29q-40 -30 -40 -82t66 -96t160 -79q94 -37 188 -79t160 -120q65 -78 65 -170t-48 -166t-124 -111q113 -90 113 -230q0 -141 -82 -229
q-148 -160 -422 -159q-356 0 -477 258l262 129q16 -70 82 -106t134 -36t120 25q51 25 51 76q0 91 -161 149t-296 137q-68 41 -114 113t-45 164q0 193 178 303q-129 86 -129 236q0 113 68 195q129 153 372 153q150 0 276 -52t183 -171l-258 -148q-21 57 -73 91t-110 34z" />
    <glyph glyph-name="dieresis" unicode="&#xa8;" horiz-adv-x="532" 
d="M478 1143q-73 0 -122 52t-49 122t49 120t119 50t123 -48t53 -121t-50 -124t-123 -51zM52 1143q-73 0 -122 52t-49 122t49 120t119 50t123 -48t53 -121t-50 -124t-123 -51z" />
    <glyph glyph-name="copyright" unicode="&#xa9;" horiz-adv-x="1638" 
d="M266 725q0 -238 162 -408t391 -170t391 170t162 408t-162 408t-391 170t-391 -170t-162 -408zM57 725q-1 315 223 539t539 223q315 0 539 -223q224 -222 223 -538q0 -316 -223 -540q-222 -224 -538 -223q-316 -1 -540 223t-223 539zM840 293q-188 0 -298 124
q-110 125 -110 317t106 310t298 117q145 0 245 -78t123 -225h-192q-25 119 -160 119q-98 0 -148 -65q-50 -64 -51 -178t53 -186t142 -71q156 0 164 137h192q-20 -154 -122 -238t-242 -83z" />
    <glyph glyph-name="ordfeminine" unicode="&#xaa;" horiz-adv-x="714" 
d="M483 1106v39h-37q-190 0 -190 -84q0 -55 88 -55q57 0 98 32t41 68zM471 883v75h-4q-39 -88 -191 -88q-96 0 -162 48t-67 122q0 72 31 114q72 97 288 112q44 2 105 2q0 40 -32 68t-83 28q-88 0 -161 -74l-107 101q113 96 282 96q170 0 234 -74t64 -227v-303h-197z" />
    <glyph glyph-name="guillemotleft" unicode="&#xab;" horiz-adv-x="1101" 
d="M1044 864l-237 -354l237 -354l-186 -125l-326 479l326 479zM549 864l-238 -354l238 -354l-187 -125l-325 479l325 479z" />
    <glyph glyph-name="logicalnot" unicode="&#xac;" horiz-adv-x="1363" 
d="M985 291v397h-864v258h1122v-655h-258z" />
    <glyph glyph-name="uni00AD" unicode="&#xad;" 
d="M555 633v-246h-504v246h504z" />
    <glyph glyph-name="registered" unicode="&#xae;" horiz-adv-x="1638" 
d="M266 725q0 -238 162 -408t391 -170t391 170t162 408t-162 408t-391 170t-391 -170t-162 -408zM57 725q-1 315 223 539t539 223q315 0 539 -223q224 -222 223 -538q0 -316 -223 -540q-222 -224 -538 -223q-316 -1 -540 223t-223 539zM733 973v-172h84q35 0 57 3t44 23
q23 20 22 60q0 86 -123 86h-84zM526 334v799h283q340 0 340 -259q0 -199 -186 -223l204 -317h-215l-182 307h-35v-307h-209z" />
    <glyph glyph-name="macron" unicode="&#xaf;" horiz-adv-x="532" 
d="M614 1407v-197h-696v197h696z" />
    <glyph glyph-name="degree" unicode="&#xb0;" horiz-adv-x="819" 
d="M410 770q-145 0 -249 103q-103 103 -103 249t102 248q104 104 250 104t248 -102q104 -104 104 -250t-104 -248q-104 -104 -248 -104zM410 942q76 0 128 52t52 128t-52 128t-128 52t-128 -52t-52 -128t52 -128t128 -52z" />
    <glyph glyph-name="plusminus" unicode="&#xb1;" horiz-adv-x="1363" 
d="M121 59v258h1122v-258h-1122zM121 662v258h432v262h258v-262h432v-258h-432v-263h-258v263h-432z" />
    <glyph glyph-name="twosuperior" unicode="&#xb2;" horiz-adv-x="788" 
d="M49 592v182l381 324q88 74 88 112q0 80 -121 80q-57 0 -94 -32t-41 -78l-209 12q9 141 105 212t246 71t243 -66q92 -66 92 -171q1 -104 -27 -150t-98 -99l-286 -221v-4h411v-172h-690z" />
    <glyph glyph-name="threesuperior" unicode="&#xb3;" horiz-adv-x="788" 
d="M293 958v172h69q152 0 152 93q0 67 -112 67t-134 -90l-225 41q61 233 356 234q141 -1 239 -61t97 -173q0 -74 -44 -125t-126 -65v-4q86 -11 137 -69t52 -136q0 -127 -102 -195t-259 -67q-301 0 -358 241l223 45q23 -102 135 -102q139 0 139 98q0 69 -60 84
q-48 12 -128 12h-51z" />
    <glyph glyph-name="acute" unicode="&#xb4;" horiz-adv-x="532" 
d="M61 1155l207 295h418l-354 -295h-271z" />
    <glyph glyph-name="mu" unicode="&#xb5;" horiz-adv-x="1175" 
d="M1067 995v-995h-295v135h-4q-35 -67 -111 -113t-180 -47q-35 0 -61 7v-449h-307v1462h307v-487q0 -158 37 -210t134 -52t135 68q38 69 38 186v495h307z" />
    <glyph glyph-name="paragraph" unicode="&#xb6;" horiz-adv-x="1269" 
d="M483 -272v1007q-221 0 -339 92t-117 258q0 205 132 285t371 80h619v-1722h-221v1525h-223v-1525h-222z" />
    <glyph glyph-name="periodcentered" unicode="&#xb7;" 
d="M115 580q0 78 55 133t133 55t133 -55q56 -55 56 -133t-56 -134t-133 -55q-78 -1 -133 55t-55 134z" />
    <glyph glyph-name="cedilla" unicode="&#xb8;" horiz-adv-x="532" 
d="M518 -293q0 -100 -92 -149q-203 -108 -449 12l52 96q92 -35 157 -35q135 0 136 66q0 33 -33 51q-66 36 -144 2l-65 60l127 190h137l-84 -123q74 0 124 -9t92 -49t42 -112z" />
    <glyph glyph-name="onesuperior" unicode="&#xb9;" horiz-adv-x="788" 
d="M375 592v649l-182 -154l-119 136l325 239h197v-870h-221z" />
    <glyph glyph-name="ordmasculine" unicode="&#xba;" horiz-adv-x="813" 
d="M406 1042q68 0 110 39t41 97q0 58 -42 97q-41 40 -109 40t-109 -39t-40 -97q1 -57 41 -97t108 -40zM47 1176q1 139 103 225t256 86t257 -86t103 -225q0 -138 -102 -222t-258 -84t-258 83q-101 84 -101 223z" />
    <glyph glyph-name="guillemotright" unicode="&#xbb;" horiz-adv-x="1101" 
d="M57 156l238 354l-238 354l187 125l325 -479l-325 -479zM553 156l238 354l-238 354l186 125l326 -479l-326 -479z" />
    <glyph glyph-name="onequarter" unicode="&#xbc;" horiz-adv-x="1820" 
d="M387 23l830 1493l172 -97l-846 -1485zM317 592v649l-182 -154l-119 136l326 239h197v-870h-222zM1466 346v279h-4l-202 -279h206zM1466 0v174h-428v160l408 536h242v-524h116v-172h-116v-174h-222z" />
    <glyph glyph-name="onehalf" unicode="&#xbd;" horiz-adv-x="1820" 
d="M387 23l830 1493l172 -97l-846 -1485zM1114 0v182l381 324q88 74 88 112q0 80 -121 80q-57 0 -94 -32t-41 -78l-209 12q10 141 106 212t246 71t242 -66t92 -171t-28 -150t-97 -99l-286 -221v-4h411v-172h-690zM317 592v649l-182 -154l-119 136l326 239h197v-870h-222z
" />
    <glyph glyph-name="threequarters" unicode="&#xbe;" horiz-adv-x="1820" 
d="M436 23l830 1493l172 -97l-846 -1485zM266 958v172h70q152 0 151 93q1 67 -111 67t-134 -90l-224 41q57 233 355 234q141 -1 238 -61t98 -173q0 -74 -44 -125t-126 -65v-4q86 -11 137 -69t51 -136q0 -127 -102 -195t-258 -67q-301 0 -359 241l223 45q23 -102 136 -102
q139 0 139 98q0 69 -61 84q-48 12 -128 12h-51zM1475 346v279h-5l-202 -279h207zM1475 0v174h-428v160l407 536h242v-524h116v-172h-116v-174h-221z" />
    <glyph glyph-name="questiondown" unicode="&#xbf;" horiz-adv-x="1138" 
d="M731 819q0 -78 -55 -133t-133 -55t-133 55t-56 133q0 78 56 133q56 56 133 56q78 0 133 -56t55 -133zM696 516v-90q0 -115 -71 -184q-37 -36 -102 -94t-91 -82t-48 -62q-22 -36 -22 -86t41 -88t120 -39q79 0 131 51t59 131l315 -20q-20 -213 -158 -329t-344 -116
q-207 0 -339 106t-132 298q0 117 55 203q54 86 199 200q80 61 80 142v59h307z" />
    <glyph glyph-name="Agrave" unicode="&#xc0;" horiz-adv-x="1517" 
d="M762 1849l207 -295h-271l-354 295h418zM926 578l-178 450l-177 -450h355zM-2 0l627 1450h264l631 -1450h-361l-125 307h-563l-121 -307h-352z" />
    <glyph glyph-name="Aacute" unicode="&#xc1;" horiz-adv-x="1517" 
d="M555 1554l207 295h418l-355 -295h-270zM926 578l-178 450l-177 -450h355zM-2 0l627 1450h264l631 -1450h-361l-125 307h-563l-121 -307h-352z" />
    <glyph glyph-name="Acircumflex" unicode="&#xc2;" horiz-adv-x="1517" 
d="M1167 1554h-282l-129 160l-127 -160h-277l244 295h334zM926 578l-178 450l-177 -450h355zM-2 0l627 1450h264l631 -1450h-361l-125 307h-563l-121 -307h-352z" />
    <glyph glyph-name="Atilde" unicode="&#xc3;" horiz-adv-x="1517" 
d="M618 1849q74 0 166 -37t127 -36q57 0 90 73h160q-49 -283 -266 -282q-61 0 -155 43t-134 43q-59 0 -86 -86h-162q18 117 86 199t174 83zM926 578l-178 450l-177 -450h355zM-2 0l627 1450h264l631 -1450h-361l-125 307h-563l-121 -307h-352z" />
    <glyph glyph-name="Adieresis" unicode="&#xc4;" horiz-adv-x="1517" 
d="M972 1542q-73 0 -122 52t-49 122t49 120t119 50t123 -48t53 -121t-50 -124t-123 -51zM546 1542q-73 0 -122 52t-49 122t49 120t119 50t123 -48t53 -121t-50 -124t-123 -51zM926 578l-178 450l-177 -450h355zM-2 0l627 1450h264l631 -1450h-361l-125 307h-563l-121 -307
h-352z" />
    <glyph glyph-name="Aring" unicode="&#xc5;" horiz-adv-x="1517" 
d="M655 1724q0 -44 31 -74t74 -30t74 31q30 31 30 73t-30 74q-31 31 -74 31t-74 -31t-31 -74zM760 1497q-94 0 -161 67q-67 66 -67 160t67 161t161 67t161 -67t67 -161t-68 -160q-66 -66 -160 -67zM926 578l-178 450l-177 -450h355zM-2 0l627 1450h264l631 -1450h-361
l-125 307h-563l-121 -307h-352z" />
    <glyph glyph-name="AE" unicode="&#xc6;" horiz-adv-x="2123" 
d="M1094 578v577h-35l-367 -577h402zM1094 0v307h-539l-195 -307h-391l920 1450h1102v-295h-578v-270h529v-295h-529v-295h602v-295h-921z" />
    <glyph glyph-name="Ccedilla" unicode="&#xc7;" horiz-adv-x="1402" 
d="M818 1192q-178 0 -298 -132q-119 -132 -119 -334t118 -335q119 -133 303 -133t288 156l266 -199q-88 -125 -228 -188t-296 -64q-27 0 -39 2l-59 -88q74 0 124 -9t92 -49t42 -112q0 -100 -92 -149q-203 -108 -449 12l51 96q92 -35 158 -35q135 0 135 66q0 33 -33 51
q-66 36 -143 2l-66 60l111 167q-278 49 -446 249t-168 499q0 344 219 553t563 209q137 0 270 -51t219 -162l-245 -201q-100 119 -278 119z" />
    <glyph glyph-name="Egrave" unicode="&#xc8;" horiz-adv-x="1290" 
d="M647 1849l207 -295h-270l-355 295h418zM160 0v1450h985v-295h-666v-270h629v-295h-629v-295h703v-295h-1022z" />
    <glyph glyph-name="Eacute" unicode="&#xc9;" horiz-adv-x="1290" 
d="M440 1554l207 295h418l-354 -295h-271zM160 0v1450h985v-295h-666v-270h629v-295h-629v-295h703v-295h-1022z" />
    <glyph glyph-name="Ecircumflex" unicode="&#xca;" horiz-adv-x="1290" 
d="M1053 1554h-283l-129 160l-127 -160h-276l243 295h334zM160 0v1450h985v-295h-666v-270h629v-295h-629v-295h703v-295h-1022z" />
    <glyph glyph-name="Edieresis" unicode="&#xcb;" horiz-adv-x="1290" 
d="M857 1542q-73 0 -122 52t-49 122t49 120t119 50t123 -48t53 -121t-50 -124t-123 -51zM431 1542q-73 0 -122 52t-49 122t49 120t119 50t123 -48t53 -121t-50 -124t-123 -51zM160 0v1450h985v-295h-666v-270h629v-295h-629v-295h703v-295h-1022z" />
    <glyph glyph-name="Igrave" unicode="&#xcc;" 
d="M305 1849l207 -295h-270l-355 295h418zM143 0v1450h320v-1450h-320z" />
    <glyph glyph-name="Iacute" unicode="&#xcd;" 
d="M98 1554l207 295h418l-354 -295h-271zM143 0v1450h320v-1450h-320z" />
    <glyph glyph-name="Icircumflex" unicode="&#xce;" 
d="M711 1554h-283l-129 160l-127 -160h-276l243 295h334zM143 0v1450h320v-1450h-320z" />
    <glyph glyph-name="Idieresis" unicode="&#xcf;" 
d="M515 1542q-73 0 -122 52t-49 122t49 120t119 50t123 -48t53 -121t-50 -124t-123 -51zM89 1542q-73 0 -122 52t-49 122t49 120t119 50t123 -48t53 -121t-50 -124t-123 -51zM143 0v1450h320v-1450h-320z" />
    <glyph glyph-name="Eth" unicode="&#xd0;" horiz-adv-x="1554" 
d="M147 0v651h-122v209h122v590h480q369 0 603 -164q255 -178 255 -581q0 -209 -115 -376t-297 -248t-403 -81h-523zM467 1155v-295h405v-209h-405v-356h166q520 0 520 442q0 203 -141 311t-357 107h-188z" />
    <glyph glyph-name="Ntilde" unicode="&#xd1;" horiz-adv-x="1669" 
d="M694 1849q74 0 166 -37t127 -36q57 0 90 73h160q-49 -283 -266 -282q-61 0 -155 43t-134 43q-59 0 -86 -86h-162q18 117 86 199t174 83zM147 0v1450h435l616 -1008h4v1008h320v-1450h-418l-633 1032h-4v-1032h-320z" />
    <glyph glyph-name="Ograve" unicode="&#xd2;" horiz-adv-x="1703" 
d="M854 1849l207 -295h-270l-355 295h418zM401 725q0 -205 124 -336t327 -131t327 131t124 336t-124 336t-327 131t-327 -131t-124 -336zM70 725q0 344 219 553t563 209t563 -209t219 -553t-219 -553t-563 -209t-563 209t-219 553z" />
    <glyph glyph-name="Oacute" unicode="&#xd3;" horiz-adv-x="1703" 
d="M647 1554l207 295h418l-354 -295h-271zM401 725q0 -205 124 -336t327 -131t327 131t124 336t-124 336t-327 131t-327 -131t-124 -336zM70 725q0 344 219 553t563 209t563 -209t219 -553t-219 -553t-563 -209t-563 209t-219 553z" />
    <glyph glyph-name="Ocircumflex" unicode="&#xd4;" horiz-adv-x="1703" 
d="M1260 1554h-283l-129 160l-127 -160h-277l244 295h334zM401 725q0 -205 124 -336t327 -131t327 131t124 336t-124 336t-327 131t-327 -131t-124 -336zM70 725q0 344 219 553t563 209t563 -209t219 -553t-219 -553t-563 -209t-563 209t-219 553z" />
    <glyph glyph-name="Otilde" unicode="&#xd5;" horiz-adv-x="1703" 
d="M711 1849q74 0 166 -37t127 -36q57 0 90 73h159q-49 -283 -266 -282q-61 0 -155 43t-134 43q-59 0 -86 -86h-161q18 117 86 199t174 83zM401 725q0 -205 124 -336t327 -131t327 131t124 336t-124 336t-327 131t-327 -131t-124 -336zM70 725q0 344 219 553t563 209
t563 -209t219 -553t-219 -553t-563 -209t-563 209t-219 553z" />
    <glyph glyph-name="Odieresis" unicode="&#xd6;" horiz-adv-x="1703" 
d="M1064 1542q-73 0 -122 52t-49 122t49 120t119 50t123 -48t53 -121t-50 -124t-123 -51zM638 1542q-73 0 -122 52t-49 122t49 120t119 50t123 -48t53 -121t-50 -124t-123 -51zM401 725q0 -205 124 -336t327 -131t327 131t124 336t-124 336t-327 131t-327 -131t-124 -336z
M70 725q0 344 219 553t563 209t563 -209t219 -553t-219 -553t-563 -209t-563 209t-219 553z" />
    <glyph glyph-name="multiply" unicode="&#xd7;" horiz-adv-x="1363" 
d="M131 973l191 194l362 -358l352 356l183 -176l-355 -368l369 -355l-189 -190l-360 360l-362 -362l-183 176l357 371z" />
    <glyph glyph-name="Oslash" unicode="&#xd8;" horiz-adv-x="1703" 
d="M852 258q203 0 327 131q123 131 123 321t-90 308l-624 -682q111 -78 264 -78zM852 1192q-203 0 -327 -131t-124 -336q0 -160 80 -281l623 678q-109 70 -252 70zM70 740q0 330 219 538q219 209 563 209q268 0 465 -131l188 205l113 -101l-184 -200q200 -207 200 -543
t-219 -545t-563 -209q-281 0 -477 139l-191 -206l-114 98l190 209q-190 207 -190 537z" />
    <glyph glyph-name="Ugrave" unicode="&#xd9;" horiz-adv-x="1517" 
d="M762 1849l207 -295h-271l-354 295h418zM1370 1450v-891q0 -266 -159 -431t-451 -165t-453 165q-160 165 -160 431v891h320v-879q0 -135 83 -224t209 -89t209 90t83 223v879h319z" />
    <glyph glyph-name="Uacute" unicode="&#xda;" horiz-adv-x="1517" 
d="M555 1554l207 295h418l-355 -295h-270zM1370 1450v-891q0 -266 -159 -431t-451 -165t-453 165q-160 165 -160 431v891h320v-879q0 -135 83 -224t209 -89t209 90t83 223v879h319z" />
    <glyph glyph-name="Ucircumflex" unicode="&#xdb;" horiz-adv-x="1517" 
d="M1167 1554h-282l-129 160l-127 -160h-277l244 295h334zM1370 1450v-891q0 -266 -159 -431t-451 -165t-453 165q-160 165 -160 431v891h320v-879q0 -135 83 -224t209 -89t209 90t83 223v879h319z" />
    <glyph glyph-name="Udieresis" unicode="&#xdc;" horiz-adv-x="1517" 
d="M972 1542q-73 0 -122 52t-49 122t49 120t119 50t123 -48t53 -121t-50 -124t-123 -51zM546 1542q-73 0 -122 52t-49 122t49 120t119 50t123 -48t53 -121t-50 -124t-123 -51zM1370 1450v-891q0 -266 -159 -431t-451 -165t-453 165q-160 165 -160 431v891h320v-879
q0 -135 83 -224t209 -89t209 90t83 223v879h319z" />
    <glyph glyph-name="Yacute" unicode="&#xdd;" horiz-adv-x="1327" 
d="M459 1610l207 295h417l-354 -295h-270zM504 0v618l-545 832h397l308 -543l325 543h379l-545 -832v-618h-319z" />
    <glyph glyph-name="Thorn" unicode="&#xde;" horiz-adv-x="1290" 
d="M467 922v-344h213q225 0 225 172t-274 172h-164zM147 0v1450h320v-258h219q551 0 551 -442t-537 -443h-233v-307h-320z" />
    <glyph glyph-name="germandbls" unicode="&#xdf;" horiz-adv-x="1290" 
d="M109 0v1051q0 522 524 522q193 0 333 -96t140 -279q0 -242 -209 -328v-4q156 -30 238 -144t82 -278q-1 -215 -137 -342t-351 -127q-94 0 -190 25v250q53 -16 100 -17q121 -1 202 61t81 183t-77 183t-204 63h-41v258h25q80 0 133 42t53 118t-55 119t-140 43
q-84 -1 -142 -55t-58 -146v-1102h-307z" />
    <glyph glyph-name="agrave" unicode="&#xe0;" horiz-adv-x="1099" 
d="M553 1450l207 -295h-271l-354 295h418zM733 436h-76q-303 0 -303 -143q0 -51 44 -80t121 -29t146 49t68 138v65zM733 0v125h-4q-94 -150 -315 -150q-147 0 -251 82q-103 82 -103 220t87 226q125 122 467 129q47 1 119 1q0 80 -57 129t-139 49q-143 0 -250 -119l-164 168
q170 160 432 160t361 -125t100 -389v-506h-283z" />
    <glyph glyph-name="aacute" unicode="&#xe1;" horiz-adv-x="1099" 
d="M346 1155l207 295h418l-355 -295h-270zM733 436h-76q-303 0 -303 -143q0 -51 44 -80t121 -29t146 49t68 138v65zM733 0v125h-4q-94 -150 -315 -150q-147 0 -251 82q-103 82 -103 220t87 226q125 122 467 129q47 1 119 1q0 80 -57 129t-139 49q-143 0 -250 -119l-164 168
q170 160 432 160t361 -125t100 -389v-506h-283z" />
    <glyph glyph-name="acircumflex" unicode="&#xe2;" horiz-adv-x="1099" 
d="M958 1155h-282l-129 160l-127 -160h-277l244 295h334zM733 436h-76q-303 0 -303 -143q0 -51 44 -80t121 -29t146 49t68 138v65zM733 0v125h-4q-94 -150 -315 -150q-147 0 -251 82q-103 82 -103 220t87 226q125 122 467 129q47 1 119 1q0 80 -57 129t-139 49
q-143 0 -250 -119l-164 168q170 160 432 160t361 -125t100 -389v-506h-283z" />
    <glyph glyph-name="atilde" unicode="&#xe3;" horiz-adv-x="1099" 
d="M410 1450q74 0 166 -37t126 -37q57 0 91 74h159q-49 -283 -266 -283q-62 0 -156 43t-133 43q-59 0 -86 -86h-161q18 117 86 200t174 83zM733 436h-76q-303 0 -303 -143q0 -51 44 -80t121 -29t146 49t68 138v65zM733 0v125h-4q-94 -150 -315 -150q-147 0 -251 82
q-103 82 -103 220t87 226q125 122 467 129q47 1 119 1q0 80 -57 129t-139 49q-143 0 -250 -119l-164 168q170 160 432 160t361 -125t100 -389v-506h-283z" />
    <glyph glyph-name="adieresis" unicode="&#xe4;" horiz-adv-x="1099" 
d="M763 1143q-73 0 -122 52t-49 122t49 120t119 50t123 -48t53 -121t-50 -124t-123 -51zM337 1143q-73 0 -122 52t-49 122t49 120t119 50t123 -48t53 -121t-50 -124t-123 -51zM733 436h-76q-303 0 -303 -143q0 -51 44 -80t121 -29t146 49t68 138v65zM733 0v125h-4
q-94 -150 -315 -150q-147 0 -251 82q-103 82 -103 220t87 226q125 122 467 129q47 1 119 1q0 80 -57 129t-139 49q-143 0 -250 -119l-164 168q170 160 432 160t361 -125t100 -389v-506h-283z" />
    <glyph glyph-name="aring" unicode="&#xe5;" horiz-adv-x="1099" 
d="M446 1343q0 -43 31 -73t74 -31q43 0 74 31q31 32 31 74t-31 73t-74 31t-74 -31t-31 -74zM551 1116q-94 0 -161 67q-66 67 -66 161t66 160q67 67 161 67t161 -67q66 -67 66 -161q0 -95 -66 -161t-161 -66zM733 436h-76q-303 0 -303 -143q0 -51 44 -80t121 -29t146 49
t68 138v65zM733 0v125h-4q-94 -150 -315 -150q-147 0 -251 82q-103 82 -103 220t87 226q125 122 467 129q47 1 119 1q0 80 -57 129t-139 49q-143 0 -250 -119l-164 168q170 160 432 160t361 -125t100 -389v-506h-283z" />
    <glyph glyph-name="ae" unicode="&#xe6;" horiz-adv-x="1744" 
d="M973 610h405q2 78 -52 133t-143 55t-147 -54q-58 -56 -63 -134zM354 285q0 -100 158 -101q203 0 203 217h-37q-324 1 -324 -116zM561 1020q201 0 324 -121q125 121 337 121t338 -141t126 -381v-97h-713q19 -88 81 -140t150 -52q131 0 219 121l215 -158q-74 -92 -186 -144
t-233 -53q-285 0 -398 162q-117 -162 -407 -162q-147 0 -251 82q-103 82 -103 232t112 221q113 72 240 86q126 14 266 14h37q0 90 -48 146t-130 55q-144 0 -250 -119l-164 168q170 160 438 160z" />
    <glyph glyph-name="ccedilla" unicode="&#xe7;" horiz-adv-x="987" 
d="M622 750q-106 0 -172 -70t-65 -182q0 -112 66 -183q66 -69 167 -69t164 76l203 -213q-131 -133 -354 -134q-14 0 -19 2l-67 -100q74 0 124 -9t92 -49t42 -112q0 -100 -92 -149q-203 -108 -449 12l51 96q92 -35 158 -35q135 0 135 66q0 33 -33 51q-66 36 -143 2l-65 60
l122 184q-182 39 -296 174t-113 330q0 234 159 378t388 144t360 -133l-203 -213q-54 76 -160 76z" />
    <glyph glyph-name="egrave" unicode="&#xe8;" horiz-adv-x="1175" 
d="M590 1450l207 -295h-271l-354 295h418zM385 610h406q1 78 -53 133t-143 55t-147 -54q-58 -56 -63 -134zM78 498q0 234 159 378t384 144t351 -141t126 -381v-97h-713q19 -88 81 -140t150 -52q132 0 220 121l215 -158q-74 -92 -187 -144t-233 -53q-237 1 -395 145t-158 378
z" />
    <glyph glyph-name="eacute" unicode="&#xe9;" horiz-adv-x="1175" 
d="M383 1155l207 295h418l-355 -295h-270zM385 610h406q1 78 -53 133t-143 55t-147 -54q-58 -56 -63 -134zM78 498q0 234 159 378t384 144t351 -141t126 -381v-97h-713q19 -88 81 -140t150 -52q132 0 220 121l215 -158q-74 -92 -187 -144t-233 -53q-237 1 -395 145t-158 378
z" />
    <glyph glyph-name="ecircumflex" unicode="&#xea;" horiz-adv-x="1175" 
d="M995 1155h-282l-129 160l-127 -160h-277l244 295h334zM385 610h406q1 78 -53 133t-143 55t-147 -54q-58 -56 -63 -134zM78 498q0 234 159 378t384 144t351 -141t126 -381v-97h-713q19 -88 81 -140t150 -52q132 0 220 121l215 -158q-74 -92 -187 -144t-233 -53
q-237 1 -395 145t-158 378z" />
    <glyph glyph-name="edieresis" unicode="&#xeb;" horiz-adv-x="1175" 
d="M800 1143q-73 0 -122 52t-49 122t49 120t119 50t123 -48t53 -121t-50 -124t-123 -51zM374 1143q-73 0 -122 52t-49 122t49 120t119 50t123 -48t53 -121t-50 -124t-123 -51zM385 610h406q1 78 -53 133t-143 55t-147 -54q-58 -56 -63 -134zM78 498q0 234 159 378t384 144
t351 -141t126 -381v-97h-713q19 -88 81 -140t150 -52q132 0 220 121l215 -158q-74 -92 -187 -144t-233 -53q-237 1 -395 145t-158 378z" />
    <glyph glyph-name="igrave" unicode="&#xec;" horiz-adv-x="532" 
d="M268 1450l207 -295h-270l-355 295h418zM113 0v995h307v-995h-307z" />
    <glyph glyph-name="iacute" unicode="&#xed;" horiz-adv-x="532" 
d="M61 1155l207 295h418l-354 -295h-271zM113 0v995h307v-995h-307z" />
    <glyph glyph-name="icircumflex" unicode="&#xee;" horiz-adv-x="532" 
d="M674 1155h-283l-129 160l-127 -160h-276l243 295h334zM113 0v995h307v-995h-307z" />
    <glyph glyph-name="idieresis" unicode="&#xef;" horiz-adv-x="532" 
d="M478 1143q-73 0 -122 52t-49 122t49 120t119 50t123 -48t53 -121t-50 -124t-123 -51zM52 1143q-73 0 -122 52t-49 122t49 120t119 50t123 -48t53 -121t-50 -124t-123 -51zM113 0v995h307v-995h-307z" />
    <glyph glyph-name="eth" unicode="&#xf0;" horiz-adv-x="1249" 
d="M379 498q-1 -113 65 -183q66 -69 181 -69t181 70t64 182q0 112 -66 182t-180 70t-180 -70t-65 -182zM1178 578q0 -279 -144 -442t-395 -162q-250 2 -409 146q-158 144 -158 376t154 377q155 146 354 147q135 0 200 -53l4 4q-119 168 -227 264l-217 -92l-147 139l221 94
q-59 63 -142 121l250 143q84 -66 164 -147l234 98l157 -137l-252 -104q70 -74 114 -129q43 -55 107 -155q132 -208 132 -488z" />
    <glyph glyph-name="ntilde" unicode="&#xf1;" horiz-adv-x="1175" 
d="M446 1450q74 0 166 -37t127 -37q57 0 90 74h160q-49 -283 -266 -283q-61 0 -155 43t-134 43q-59 0 -86 -86h-162q18 117 86 200t174 83zM109 0v995h294v-135h5q35 66 110 113q76 47 180 47q215 0 292 -122t77 -349v-549h-307v487q0 160 -35 205q-39 56 -137 57
q-96 1 -134 -68t-38 -185v-496h-307z" />
    <glyph glyph-name="ograve" unicode="&#xf2;" horiz-adv-x="1249" 
d="M627 1450l207 -295h-271l-354 295h418zM379 498q-1 -113 65 -183q66 -69 181 -69t181 70t64 182q0 112 -66 182t-180 70t-180 -70t-65 -182zM72 498q0 233 158 378q159 144 395 144q237 0 395 -144t158 -378t-159 -378t-395 -144t-394 144q-158 145 -158 378z" />
    <glyph glyph-name="oacute" unicode="&#xf3;" horiz-adv-x="1249" 
d="M420 1155l207 295h417l-354 -295h-270zM379 498q-1 -113 65 -183q66 -69 181 -69t181 70t64 182q0 112 -66 182t-180 70t-180 -70t-65 -182zM72 498q0 233 158 378q159 144 395 144q237 0 395 -144t158 -378t-159 -378t-395 -144t-394 144q-158 145 -158 378z" />
    <glyph glyph-name="ocircumflex" unicode="&#xf4;" horiz-adv-x="1249" 
d="M1032 1155h-282l-129 160l-127 -160h-277l244 295h334zM379 498q-1 -113 65 -183q66 -69 181 -69t181 70t64 182q0 112 -66 182t-180 70t-180 -70t-65 -182zM72 498q0 233 158 378q159 144 395 144q237 0 395 -144t158 -378t-159 -378t-395 -144t-394 144
q-158 145 -158 378z" />
    <glyph glyph-name="otilde" unicode="&#xf5;" horiz-adv-x="1249" 
d="M483 1450q75 0 167 -37t126 -37q57 0 90 74h160q-49 -283 -266 -283q-62 0 -156 43t-133 43q-59 0 -86 -86h-162q18 117 86 200t174 83zM379 498q-1 -113 65 -183q66 -69 181 -69t181 70t64 182q0 112 -66 182t-180 70t-180 -70t-65 -182zM72 498q0 233 158 378
q159 144 395 144q237 0 395 -144t158 -378t-159 -378t-395 -144t-394 144q-158 145 -158 378z" />
    <glyph glyph-name="odieresis" unicode="&#xf6;" horiz-adv-x="1249" 
d="M837 1143q-73 0 -122 52t-49 122t49 120t119 50t122 -48q54 -48 54 -121t-50 -124t-123 -51zM411 1143q-73 0 -122 52t-49 122t49 120t119 50t122 -48t54 -121q0 -73 -50 -124t-123 -51zM379 498q-1 -113 65 -183q66 -69 181 -69t181 70t64 182q0 112 -66 182t-180 70
t-180 -70t-65 -182zM72 498q0 233 158 378q159 144 395 144q237 0 395 -144t158 -378t-159 -378t-395 -144t-394 144q-158 145 -158 378z" />
    <glyph glyph-name="divide" unicode="&#xf7;" horiz-adv-x="1363" 
d="M506 1008q0 72 52 124t124 52t124 -52t52 -124t-52 -124t-124 -52t-124 52t-52 124zM506 233q0 72 52 124q52 53 124 53t124 -52t52 -125q0 -71 -52 -123t-124 -52t-124 51q-52 52 -52 124zM121 492v258h1122v-258h-1122z" />
    <glyph glyph-name="oslash" unicode="&#xf8;" horiz-adv-x="1249" 
d="M846 614l-342 -340q53 -29 121 -28q115 0 181 70t64 182q1 63 -24 116zM625 750q-115 0 -181 -70t-65 -182q0 -74 31 -129l348 348q-55 33 -133 33zM72 512q0 219 158 364q159 144 395 144q193 0 338 -100l137 137l96 -92l-135 -136q117 -137 117 -331q0 -234 -159 -378
t-394 -145q-184 0 -326 95l-149 -150l-97 92l144 144q-125 137 -125 356z" />
    <glyph glyph-name="ugrave" unicode="&#xf9;" horiz-adv-x="1175" 
d="M590 1450l207 -295h-271l-354 295h418zM1067 995v-995h-295v135h-4q-35 -67 -111 -113t-180 -47q-215 0 -292 122t-76 349v549h307v-487q0 -158 37 -210t134 -52t135 68q38 69 38 186v495h307z" />
    <glyph glyph-name="uacute" unicode="&#xfa;" horiz-adv-x="1175" 
d="M383 1155l207 295h418l-355 -295h-270zM1067 995v-995h-295v135h-4q-35 -67 -111 -113t-180 -47q-215 0 -292 122t-76 349v549h307v-487q0 -158 37 -210t134 -52t135 68q38 69 38 186v495h307z" />
    <glyph glyph-name="ucircumflex" unicode="&#xfb;" horiz-adv-x="1175" 
d="M995 1155h-282l-129 160l-127 -160h-277l244 295h334zM1067 995v-995h-295v135h-4q-35 -67 -111 -113t-180 -47q-215 0 -292 122t-76 349v549h307v-487q0 -158 37 -210t134 -52t135 68q38 69 38 186v495h307z" />
    <glyph glyph-name="udieresis" unicode="&#xfc;" horiz-adv-x="1175" 
d="M800 1143q-73 0 -122 52t-49 122t49 120t119 50t123 -48t53 -121t-50 -124t-123 -51zM374 1143q-73 0 -122 52t-49 122t49 120t119 50t123 -48t53 -121t-50 -124t-123 -51zM1067 995v-995h-295v135h-4q-35 -67 -111 -113t-180 -47q-215 0 -292 122t-76 349v549h307v-487
q0 -158 37 -210t134 -52t135 68q38 69 38 186v495h307z" />
    <glyph glyph-name="yacute" unicode="&#xfd;" horiz-adv-x="1138" 
d="M365 1155l206 295h418l-354 -295h-270zM1133 995l-451 -1157q-31 -80 -48 -118t-51 -88t-72 -70q-99 -52 -235 -53q-135 -1 -245 36l41 252q72 -31 142 -31t109 24q40 22 55 50t42 94l22 58l-436 1003h332l256 -657h4l219 657h316z" />
    <glyph glyph-name="thorn" unicode="&#xfe;" horiz-adv-x="1290" 
d="M420 498q0 -113 66 -183q66 -69 180 -69t180 70t65 182q1 112 -65 182t-180 70t-180 -70t-66 -182zM137 -467v2015h307v-659h5q35 59 115 95t165 36q219 0 354 -143t135 -365t-124 -380q-125 -157 -338 -157t-307 131h-5v-573h-307z" />
    <glyph glyph-name="ydieresis" unicode="&#xff;" horiz-adv-x="1138" 
d="M781 1143q-73 0 -122 52t-49 122t49 120t119 50t123 -48t53 -121t-50 -124t-123 -51zM355 1143q-73 0 -122 52t-49 122t49 120t119 50t123 -48t53 -121t-50 -124t-123 -51zM1133 995l-451 -1157q-31 -80 -48 -118t-51 -88t-72 -70q-99 -52 -235 -53q-135 -1 -245 36
l41 252q72 -31 142 -31t109 24q40 22 55 50t42 94l22 58l-436 1003h332l256 -657h4l219 657h316z" />
    <glyph glyph-name="dotlessi" unicode="&#x131;" horiz-adv-x="532" 
d="M113 0v995h307v-995h-307z" />
    <glyph glyph-name="Lslash" unicode="&#x141;" horiz-adv-x="1099" 
d="M160 0v328l-123 -107v271l123 106v852h319v-576l430 379v-266l-430 -377v-315h592v-295h-911z" />
    <glyph glyph-name="lslash" unicode="&#x142;" horiz-adv-x="532" 
d="M113 0v508l-123 -125v264l123 125v776h307v-469l123 125v-264l-123 -125v-815h-307z" />
    <glyph glyph-name="OE" unicode="&#x152;" horiz-adv-x="2084" 
d="M1042 295v860h-104q-244 0 -390 -111q-146 -112 -146 -320t146 -318t390 -111h104zM1362 1155v-270h541v-295h-541v-295h614v-295h-1087q-313 0 -554 171q-120 85 -193 228t-72 326q0 342 226 533t576 192h1080v-295h-590z" />
    <glyph glyph-name="oe" unicode="&#x153;" horiz-adv-x="1933" 
d="M1143 610h405q2 78 -52 133t-143 55t-147 -54q-58 -56 -63 -134zM627 750q-115 0 -182 -69t-67 -183t68 -184q66 -68 181 -68t181 70t64 182q0 112 -65 182t-180 70zM620 1020q232 0 379 -150q143 150 374 150t357 -141t125 -381v-97h-712q19 -88 81 -140t150 -52
q131 0 219 121l215 -158q-74 -92 -186 -144t-233 -53q-260 0 -390 142q-135 -141 -373 -141t-396 144t-158 378t158 378t390 144z" />
    <glyph glyph-name="Scaron" unicode="&#x160;" horiz-adv-x="1175" 
d="M172 1905h283l129 -160l127 160h276l-244 -295h-333zM624 1192q-72 0 -139 -38t-67 -102q1 -109 132 -156q58 -22 130 -41t144 -48t129 -71t95 -118t37 -178q1 -231 -159 -354t-400 -123q-291 0 -487 182l227 250q49 -63 124 -100t158 -37q82 0 150 40t68 106t-50 110
t-126 64q-172 46 -328 124q-76 39 -126 120t-50 194q0 221 163 346t390 125q272 0 444 -152l-219 -239q-36 48 -102 72t-138 24z" />
    <glyph glyph-name="scaron" unicode="&#x161;" horiz-adv-x="948" 
d="M59 1450h283l129 -160l127 160h276l-243 -295h-334zM494 786q-45 0 -79 -20t-34 -57q0 -71 135 -90q135 -20 249 -75q58 -28 96 -90t38 -152t-41 -157q-42 -69 -110 -103q-130 -65 -308 -67q-258 0 -391 136l187 206q90 -109 223 -109t133 73q0 43 -53 65t-129 38
q-76 15 -153 40q-77 24 -130 90t-53 170q0 164 123 250t295 86q245 0 368 -131l-188 -187q-68 84 -178 84z" />
    <glyph glyph-name="Ydieresis" unicode="&#x178;" horiz-adv-x="1327" 
d="M875 1597q-73 1 -121 53t-49 122q0 70 49 120q48 50 118 50t123 -48t53 -122q0 -72 -50 -124t-123 -51zM450 1597q-73 1 -122 53t-49 122t49 120q48 50 118 50t123 -48t53 -122q0 -72 -49 -124q-50 -52 -123 -51zM504 0v618l-545 832h397l308 -543l325 543h379l-545 -832
v-618h-319z" />
    <glyph glyph-name="Zcaron" unicode="&#x17d;" horiz-adv-x="1290" 
d="M229 1905h283l129 -160l127 160h276l-243 -295h-334zM72 0v295l735 872h-709v283h1096v-283l-721 -872h746v-295h-1147z" />
    <glyph glyph-name="zcaron" unicode="&#x17e;" horiz-adv-x="1024" 
d="M96 1450h283l129 -160l127 160h276l-243 -295h-334zM70 0v307l516 443h-504v245h860v-295l-541 -454h553v-246h-884z" />
    <glyph glyph-name="florin" unicode="&#x192;" horiz-adv-x="1212" 
d="M1016 889v-209h-299l-119 -598q-37 -178 -133 -272t-279 -95q-117 0 -227 49l107 244q39 -22 98 -22t93 44t56 150l103 500h-234v209h275l37 186q45 227 131 313t274 87q135 0 266 -62l-108 -231q-51 22 -115 22t-100 -39t-54 -131l-30 -145h258z" />
    <glyph glyph-name="circumflex" unicode="&#x2c6;" horiz-adv-x="532" 
d="M674 1155h-283l-129 160l-127 -160h-276l243 295h334z" />
    <glyph glyph-name="caron" unicode="&#x2c7;" horiz-adv-x="532" 
d="M-150 1450h283l129 -160l127 160h277l-244 -295h-334z" />
    <glyph glyph-name="uni02C9" unicode="&#x2c9;" horiz-adv-x="532" 
d="M614 1407v-197h-696v197h696z" />
    <glyph glyph-name="breve" unicode="&#x2d8;" horiz-adv-x="532" 
d="M266 1352q94 0 145 18q50 18 70 80h162q-17 -150 -119 -222t-260 -73t-262 71t-113 224h164q23 -98 213 -98z" />
    <glyph glyph-name="dotaccent" unicode="&#x2d9;" horiz-adv-x="532" 
d="M265 1143q-73 0 -122 52t-49 122t49 120t119 50t123 -48t53 -121t-50 -124t-123 -51z" />
    <glyph glyph-name="ring" unicode="&#x2da;" horiz-adv-x="532" 
d="M162 1343q0 -43 31 -73t73 -31q42 0 74 31q31 32 31 74t-31 73t-74 31q-44 0 -74 -31t-30 -74zM266 1116q-94 0 -161 67t-67 161t67 160q67 67 161 67t161 -67t67 -161q0 -95 -67 -161t-161 -66z" />
    <glyph glyph-name="ogonek" unicode="&#x2db;" horiz-adv-x="532" 
d="M208 -492q-98 0 -162 52t-64 135q0 84 66 175q67 91 149 155h139q-62 -51 -116 -131t-54 -130t26 -78q26 -30 70 -30q45 0 100 47l58 -109q-113 -86 -212 -86z" />
    <glyph glyph-name="tilde" unicode="&#x2dc;" horiz-adv-x="532" 
d="M125 1450q74 0 166 -37t127 -37q57 0 90 74h160q-49 -283 -267 -283q-61 0 -155 43t-133 43q-59 0 -86 -86h-162q18 117 86 200t174 83z" />
    <glyph glyph-name="hungarumlaut" unicode="&#x2dd;" horiz-adv-x="532" 
d="M332 1155l207 295h417l-354 -295h-270zM-209 1155l207 295h418l-355 -295h-270z" />
    <glyph glyph-name="uni03A9" unicode="&#x3a9;" horiz-adv-x="1538" 
d="M373 223v6q-262 233 -262 574q0 276 186 470q186 193 480 193t471 -200t177 -451q-1 -186 -77 -337t-191 -249v-6h297v-223h-580v166q264 166 265 590q-1 201 -99 342t-267 141t-272 -139q-103 -138 -103 -352t75 -366q76 -152 189 -216v-166h-582v223h293z" />
    <glyph glyph-name="uni03BC" unicode="&#x3bc;" horiz-adv-x="1175" 
d="M1067 995v-995h-295v135h-4q-35 -67 -111 -113t-180 -47q-35 0 -61 7v-449h-307v1462h307v-487q0 -158 37 -210t134 -52t135 68q38 69 38 186v495h307z" />
    <glyph glyph-name="pi" unicode="&#x3c0;" horiz-adv-x="1304" 
d="M1102 852v-537q0 -201 28 -315h-274q-37 59 -37 301v551h-291q-8 -195 -46 -452t-89 -400h-274q51 176 89 428t42 424q-143 0 -211 -21l-31 183q88 72 357 71h909l-21 -233h-151z" />
    <glyph glyph-name="uni2010" unicode="&#x2010;" 
d="M555 633v-246h-504v246h504z" />
    <glyph glyph-name="endash" unicode="&#x2013;" horiz-adv-x="1024" 
d="M0 387v246h1024v-246h-1024z" />
    <glyph glyph-name="emdash" unicode="&#x2014;" horiz-adv-x="2048" 
d="M0 387v246h2048v-246h-2048z" />
    <glyph glyph-name="quoteleft" unicode="&#x2018;" 
d="M80 872l184 578h262l-151 -578h-295z" />
    <glyph glyph-name="quoteright" unicode="&#x2019;" 
d="M526 1450l-184 -578h-262l151 578h295z" />
    <glyph glyph-name="quotesinglbase" unicode="&#x201a;" 
d="M526 319l-184 -577h-262l151 577h295z" />
    <glyph glyph-name="quotedblleft" unicode="&#x201c;" horiz-adv-x="1064" 
d="M528 872l185 578h262l-152 -578h-295zM90 872l184 578h263l-152 -578h-295z" />
    <glyph glyph-name="quotedblright" unicode="&#x201d;" horiz-adv-x="1064" 
d="M537 1450l-185 -578h-262l152 578h295zM975 1450l-184 -578h-263l152 578h295z" />
    <glyph glyph-name="quotedblbase" unicode="&#x201e;" horiz-adv-x="1064" 
d="M537 319l-185 -577h-262l152 577h295zM975 319l-184 -577h-263l152 577h295z" />
    <glyph glyph-name="dagger" unicode="&#x2020;" horiz-adv-x="1212" 
d="M459 -272v1034h-389v258h389v430h282v-430h402v-258h-402v-1034h-282z" />
    <glyph glyph-name="daggerdbl" unicode="&#x2021;" horiz-adv-x="1212" 
d="M465 -272v368h-395v246h395v494h-395v245h395v369h283v-369h395v-245h-395v-494h395v-246h-395v-368h-283z" />
    <glyph glyph-name="bullet" unicode="&#x2022;" horiz-adv-x="1024" 
d="M150 725q0 152 105 257t257 105t257 -105t105 -257t-105 -257q-105 -106 -257 -106t-257 106t-105 257z" />
    <glyph glyph-name="ellipsis" unicode="&#x2026;" horiz-adv-x="2048" 
d="M1518 176q0 78 55 133t133 55t133 -54q55 -56 55 -134t-55 -133t-133 -55t-133 55t-55 133zM836 176q0 78 55 133t133 55t133 -54q55 -56 55 -134t-55 -133t-133 -55t-133 55t-55 133zM154 176q0 78 55 133t133 55t133 -54q55 -56 55 -134t-55 -133t-133 -55t-133 55
t-55 133z" />
    <glyph glyph-name="perthousand" unicode="&#x2030;" horiz-adv-x="2390" 
d="M301 23l829 1493l173 -97l-846 -1485zM262 1114q0 -68 48 -117t116 -49t117 49t49 117t-49 116t-117 48t-116 -48t-48 -116zM66 1114q0 150 105 255t255 105t256 -104q106 -106 106 -256t-106 -256t-256 -106t-255 106t-105 256zM1798 338q0 -68 48 -117t116 -49t117 49
t49 117t-49 116t-117 48t-116 -48t-48 -116zM1602 338q0 150 105 255t255 105t256 -105t106 -255t-106 -256t-256 -106t-255 106t-105 256zM1006 338q0 -68 48 -117t116 -49t115 49q48 49 48 117t-48 116t-116 48q-67 0 -115 -48t-48 -116zM809 338q0 150 105 255t255 105
t255 -105q106 -105 106 -255t-106 -256t-255 -106q-150 0 -255 106t-105 256z" />
    <glyph glyph-name="guilsinglleft" unicode="&#x2039;" 
d="M549 864l-238 -354l238 -354l-187 -125l-325 479l325 479z" />
    <glyph glyph-name="guilsinglright" unicode="&#x203a;" 
d="M57 156l238 354l-238 354l187 125l325 -479l-325 -479z" />
    <glyph glyph-name="fraction" unicode="&#x2044;" horiz-adv-x="342" 
d="M-330 23l830 1493l172 -97l-846 -1485z" />
    <glyph glyph-name="Euro" unicode="&#x20ac;" horiz-adv-x="1212" 
d="M162 676v39q0 35 4 100h-139l63 189h107q61 231 222 351t406 120q76 -1 177 -19t141 -41l-94 -266q-78 51 -224 51q-221 0 -305 -196h481l-61 -189h-463q-4 -61 -4 -92v-43q0 -27 2 -41h418l-59 -184h-328q66 -213 264 -213q152 -1 246 118l168 -206q-68 -80 -188 -129
t-255 -50q-457 0 -555 480h-166l58 184h86q-2 12 -2 37z" />
    <glyph glyph-name="afii61289" unicode="&#x2113;" horiz-adv-x="1118" 
d="M498 1069v-317q246 274 245 473q0 170 -114 170q-55 0 -93 -76t-38 -250zM227 1053q0 268 108 402q109 134 271 134t241 -104t79 -274q0 -169 -109 -343t-319 -368l2 -80q2 -100 54 -156t132 -57q156 0 277 190l114 -118q-156 -297 -456 -297q-178 0 -273 92
q-94 92 -117 241q0 14 -2 23q-100 -76 -108 -82l-72 145l178 144v508z" />
    <glyph glyph-name="trademark" unicode="&#x2122;" horiz-adv-x="2048" 
d="M971 606v844h297l200 -549l201 549h297v-844h-221v549h-4l-201 -549h-143l-201 549h-4v-549h-221zM326 606v647h-244v197h709v-197h-244v-647h-221z" />
    <glyph glyph-name="Omega" unicode="&#x2126;" horiz-adv-x="1538" 
d="M373 223v6q-262 233 -262 574q0 276 186 470q186 193 480 193t471 -200t177 -451q-1 -186 -77 -337t-191 -249v-6h297v-223h-580v166q264 166 265 590q-1 201 -99 342t-267 141t-272 -139q-103 -138 -103 -352t75 -366q76 -152 189 -216v-166h-582v223h293z" />
    <glyph glyph-name="estimated" unicode="&#x212e;" horiz-adv-x="1808" 
d="M1430 758v409q0 29 -21 50q-217 213 -508 213t-506 -220q-18 -23 -18 -51v-401q0 -14 10 -15h1034q9 1 9 15zM1735 705h-1348q-10 0 -10 -11v-407q0 -25 16 -47q215 -221 510 -222q158 0 297 67t240 181h121q-115 -133 -289 -211t-371 -78q-344 -1 -588 219t-243 529
q0 309 243 529q244 220 589 220t589 -218q244 -220 244 -531v-20z" />
    <glyph glyph-name="partialdiff" unicode="&#x2202;" horiz-adv-x="1241" 
d="M557 213h2q74 0 136 65q117 122 143 345q-16 59 -82 117t-163 58t-167 -96q-70 -98 -70 -220t56 -196t145 -73zM550 1632q247 0 419 -210t172 -588t-164 -615q-164 -236 -447 -235q-144 0 -252 80t-154 189q-46 110 -46 224q0 241 133 391t332 150q117 0 199 -55
t120 -115h2q2 16 2 67q0 201 -100 345t-257 145q-157 0 -290 -98l-80 202q164 123 411 123z" />
    <glyph glyph-name="uni2206" unicode="&#x2206;" horiz-adv-x="1419" 
d="M348 223h707l-230 600q-14 49 -60 183t-58 182h-7q-10 -35 -51 -158t-57 -176zM55 0v160l492 1317h338l477 -1315v-162h-1307z" />
    <glyph glyph-name="product" unicode="&#x220f;" horiz-adv-x="1554" 
d="M1503 1194h-221v-1393h-276v1393h-459v-1393h-277v1393h-221v250h1454v-250z" />
    <glyph glyph-name="summation" unicode="&#x2211;" horiz-adv-x="1204" 
d="M1165 -199h-1118v174l516 648l-495 628v193h1062v-236h-684v-8l433 -534l-478 -605v-6h764v-254z" />
    <glyph glyph-name="minus" unicode="&#x2212;" horiz-adv-x="1363" 
d="M121 492v258h1122v-258h-1122z" />
    <glyph glyph-name="uni2215" unicode="&#x2215;" horiz-adv-x="342" 
d="M-330 23l830 1493l172 -97l-846 -1485z" />
    <glyph glyph-name="uni2219" unicode="&#x2219;" 
d="M115 580q0 78 55 133t133 55t133 -55q56 -55 56 -133t-56 -134t-133 -55q-78 -1 -133 55t-55 134z" />
    <glyph glyph-name="radical" unicode="&#x221a;" horiz-adv-x="1277" 
d="M1300 1733l-485 -2024h-223l-322 901l-157 -63l-47 151l370 152l223 -660q14 -63 43 -178l3 -2q25 141 34 193l365 1530h196z" />
    <glyph glyph-name="infinity" unicode="&#x221e;" horiz-adv-x="1644" 
d="M1198 801h-2q-58 0 -109 -33q-50 -33 -77 -62q-27 -28 -36 -37t-36 -42t-29 -35q97 -123 159 -168t141 -45q79 1 129 65t50 150t-52 146t-138 61zM453 379h4q53 0 110 35q57 36 88 68t86 96q-59 80 -88 114t-86 72q-57 37 -133 37q-76 -1 -128 -61t-52 -151t57 -151
q58 -59 142 -59zM1542 598v-2q0 -166 -101 -267t-239 -102q-96 -1 -187 53t-192 187q-94 -117 -183 -178t-215 -61t-225 100q-100 102 -100 259t100 259t253 102q113 0 201 -59t177 -174q4 3 27 29t30 33t51 53t72 59q29 15 72 37t131 22q140 0 234 -97t94 -253z" />
    <glyph glyph-name="integral" unicode="&#x222b;" horiz-adv-x="839" 
d="M178 -154q141 0 141 336q0 218 -16 542t-16 502q-1 178 29 286t100 180q88 96 252 96q72 0 131 -25l-29 -188q-38 18 -92 18t-92 -53q-57 -74 -58 -344q0 -164 16 -480t17 -509q0 -276 -78 -412q-80 -156 -276 -155q-98 0 -168 34l35 195q55 -23 104 -23z" />
    <glyph glyph-name="approxequal" unicode="&#x2248;" horiz-adv-x="1177" 
d="M801 240q-99 0 -257 95q-60 36 -95 48t-75 12q-40 1 -79 -25t-61 -52t-56 -76l-100 94q49 94 134 154t177 60t175 -46q7 -4 29 -16t72 -42q77 -47 136 -47t101 36t93 114l99 -92q-119 -217 -293 -217zM803 637q-101 0 -229 77t-183 77q-87 0 -157 -76q-22 -25 -56 -76
l-100 92q49 95 133 155t180 60q48 0 74 -8q25 -8 39 -12t34 -14l26 -13q7 -4 29 -15t49 -29t66 -39t95 -21q57 -1 101 37t91 114l99 -94q-117 -215 -291 -215z" />
    <glyph glyph-name="notequal" unicode="&#x2260;" horiz-adv-x="1177" 
d="M1075 887v-160h-350l-125 -283h475v-157h-538l-107 -242l-125 53l84 189h-287v157h349l124 283h-473v160h535l104 235l127 -51l-82 -184h289z" />
    <glyph glyph-name="lessequal" unicode="&#x2264;" horiz-adv-x="1177" 
d="M1077 -31h-973v162h973v-162zM1069 209l-956 467v172l956 467v-185l-797 -364v-4l797 -369v-184z" />
    <glyph glyph-name="greaterequal" unicode="&#x2265;" horiz-adv-x="1177" 
d="M1073 -31h-967v162h967v-162zM115 1315l958 -467v-172l-956 -467v184l794 367v6l-796 364v185z" />
    <glyph glyph-name="lozenge" unicode="&#x25ca;" horiz-adv-x="1275" 
d="M926 715l-244 491q-27 61 -41 119h-6q-18 -63 -41 -119l-244 -479l246 -500q25 -57 37 -112h8q23 82 37 108zM1171 721l-428 -825h-221l-418 825l426 825h224z" />
    <glyph glyph-name="fi" unicode="&#xfb01;" horiz-adv-x="1290" 
d="M215 0v750h-203v245h203v176q0 90 14 156q51 246 367 246q114 0 188 -19l-14 -260q-58 20 -118 20t-95 -33q-35 -34 -35 -128v-158h228v-245h-228v-750h-307zM846 1309q0 74 52 126t126 52t126 -52t52 -126t-52 -126q-52 -53 -126 -53t-126 52t-52 127zM870 0v995h308
v-995h-308z" />
    <glyph glyph-name="fl" unicode="&#xfb02;" horiz-adv-x="1290" 
d="M215 0v750h-203v245h203v176q0 90 14 156q51 246 367 246q114 0 188 -19l-14 -260q-58 20 -118 20t-95 -33q-35 -34 -35 -128v-158h228v-245h-228v-750h-307zM870 0v1548h308v-1548h-308z" />
    <glyph glyph-name="a.superior" horiz-adv-x="714" 
d="M483 1106v39h-37q-190 0 -190 -84q0 -55 88 -55q57 0 98 32t41 68zM471 883v75h-4q-39 -88 -191 -88q-96 0 -162 48t-67 122q0 72 31 114q72 97 288 112q44 2 105 2q0 40 -32 68t-83 28q-88 0 -161 -74l-107 101q113 96 282 96q170 0 234 -74t64 -227v-303h-197z" />
    <glyph glyph-name="o.superior" horiz-adv-x="813" 
d="M406 1042q68 0 110 39t41 97q0 58 -42 97q-41 40 -109 40t-109 -39t-40 -97q1 -57 41 -97t108 -40zM47 1176q1 139 103 225t256 86t257 -86t103 -225q0 -138 -102 -222t-258 -84t-258 83q-101 84 -101 223z" />
    <glyph glyph-name="one.superior" horiz-adv-x="788" 
d="M375 592v649l-182 -154l-119 136l325 239h197v-870h-221z" />
    <glyph glyph-name="two.superior" horiz-adv-x="788" 
d="M49 592v182l381 324q88 74 88 112q0 80 -121 80q-57 0 -94 -32t-41 -78l-209 12q9 141 105 212t246 71t243 -66q92 -66 92 -171q1 -104 -27 -150t-98 -99l-286 -221v-4h411v-172h-690z" />
    <glyph glyph-name="three.superior" horiz-adv-x="788" 
d="M293 958v172h69q152 0 152 93q0 67 -112 67t-134 -90l-225 41q61 233 356 234q141 -1 239 -61t97 -173q0 -74 -44 -125t-126 -65v-4q86 -11 137 -69t52 -136q0 -127 -102 -195t-259 -67q-301 0 -358 241l223 45q23 -102 135 -102q139 0 139 98q0 69 -60 84
q-48 12 -128 12h-51z" />
    <hkern u1="T" u2="&#x161;" k="57" />
    <hkern u1="T" u2="&#xfc;" k="94" />
    <hkern u1="T" u2="&#xf6;" k="115" />
    <hkern u1="T" u2="&#xf2;" k="115" />
    <hkern u1="T" u2="&#xeb;" k="115" />
    <hkern u1="T" u2="&#xea;" k="170" />
    <hkern u1="T" u2="&#xe8;" k="170" />
    <hkern u1="T" u2="&#xe5;" k="102" />
    <hkern u1="T" u2="&#xe4;" k="51" />
    <hkern u1="T" u2="&#xe3;" k="102" />
    <hkern u1="T" u2="&#xe2;" k="102" />
    <hkern u1="T" u2="&#xe0;" k="102" />
    <hkern u1="V" u2="&#xf6;" k="76" />
    <hkern u1="V" u2="&#xf4;" k="115" />
    <hkern u1="V" u2="&#xeb;" k="76" />
    <hkern u1="V" u2="&#xea;" k="76" />
    <hkern u1="V" u2="&#xe8;" k="76" />
    <hkern u1="V" u2="&#xe5;" k="57" />
    <hkern u1="V" u2="&#xe4;" k="57" />
    <hkern u1="V" u2="&#xe3;" k="57" />
    <hkern u1="V" u2="&#xe2;" k="57" />
    <hkern u1="V" u2="&#xe0;" k="57" />
    <hkern u1="W" u2="&#xfc;" k="29" />
    <hkern u1="W" u2="&#xf6;" k="84" />
    <hkern u1="W" u2="&#xea;" k="84" />
    <hkern u1="W" u2="&#xe4;" k="57" />
    <hkern u1="Y" u2="&#xfc;" k="133" />
    <hkern u1="Y" u2="&#xf6;" k="170" />
    <hkern u1="&#x2018;" u2="&#x2018;" k="162" />
    <hkern u1="&#x2019;" u2="&#x2019;" k="162" />
    <hkern g1="f"
	g2="quoteright"
	k="-37" />
    <hkern g1="f"
	g2="f,germandbls,fi,fl,f_i,f_l"
	k="37" />
    <hkern g1="F"
	g2="A,Agrave,Aacute,Acircumflex,Atilde,Adieresis,Aring,AE"
	k="113" />
    <hkern g1="F"
	g2="comma"
	k="264" />
    <hkern g1="F"
	g2="period"
	k="264" />
    <hkern g1="L,Lslash"
	g2="T"
	k="188" />
    <hkern g1="L,Lslash"
	g2="V"
	k="188" />
    <hkern g1="L,Lslash"
	g2="W"
	k="113" />
    <hkern g1="L,Lslash"
	g2="y,yacute,ydieresis"
	k="76" />
    <hkern g1="L,Lslash"
	g2="Y,Yacute,Ydieresis"
	k="227" />
    <hkern g1="L,Lslash"
	g2="quoteright"
	k="152" />
    <hkern g1="P"
	g2="A,Agrave,Aacute,Acircumflex,Atilde,Adieresis,Aring,AE"
	k="188" />
    <hkern g1="P"
	g2="comma"
	k="346" />
    <hkern g1="P"
	g2="period"
	k="346" />
    <hkern g1="r"
	g2="comma"
	k="188" />
    <hkern g1="r"
	g2="period"
	k="188" />
    <hkern g1="r"
	g2="c,ccedilla"
	k="37" />
    <hkern g1="r"
	g2="d"
	k="37" />
    <hkern g1="r"
	g2="e,egrave,eacute,ecircumflex,edieresis"
	k="37" />
    <hkern g1="r"
	g2="n,ntilde"
	k="-37" />
    <hkern g1="r"
	g2="o,ograve,oacute,ocircumflex,otilde,odieresis,oslash,oe"
	k="37" />
    <hkern g1="r"
	g2="q"
	k="37" />
    <hkern g1="r"
	g2="hyphen"
	k="113" />
    <hkern g1="R"
	g2="T"
	k="37" />
    <hkern g1="R"
	g2="Y,Yacute,Ydieresis"
	k="37" />
    <hkern g1="T"
	g2="w"
	k="227" />
    <hkern g1="T"
	g2="y,yacute,ydieresis"
	k="227" />
    <hkern g1="T"
	g2="A,Agrave,Aacute,Acircumflex,Atilde,Adieresis,Aring,AE"
	k="188" />
    <hkern g1="T"
	g2="comma"
	k="227" />
    <hkern g1="T"
	g2="period"
	k="227" />
    <hkern g1="T"
	g2="c,ccedilla"
	k="227" />
    <hkern g1="T"
	g2="e,egrave,eacute,ecircumflex,edieresis"
	k="227" />
    <hkern g1="T"
	g2="o,ograve,oacute,ocircumflex,otilde,odieresis,oslash,oe"
	k="227" />
    <hkern g1="T"
	g2="hyphen"
	k="264" />
    <hkern g1="T"
	g2="a,agrave,aacute,acircumflex,atilde,adieresis,aring,ae"
	k="205" />
    <hkern g1="T"
	g2="r"
	k="188" />
    <hkern g1="T"
	g2="s,scaron"
	k="227" />
    <hkern g1="T"
	g2="u,ugrave,uacute,ucircumflex,udieresis"
	k="188" />
    <hkern g1="T"
	g2="colon"
	k="170" />
    <hkern g1="T"
	g2="semicolon"
	k="170" />
    <hkern g1="v"
	g2="comma"
	k="188" />
    <hkern g1="v"
	g2="period"
	k="152" />
    <hkern g1="V"
	g2="y,yacute,ydieresis"
	k="37" />
    <hkern g1="V"
	g2="A,Agrave,Aacute,Acircumflex,Atilde,Adieresis,Aring,AE"
	k="127" />
    <hkern g1="V"
	g2="comma"
	k="264" />
    <hkern g1="V"
	g2="period"
	k="264" />
    <hkern g1="V"
	g2="e,egrave,eacute,ecircumflex,edieresis"
	k="152" />
    <hkern g1="V"
	g2="o,ograve,oacute,ocircumflex,otilde,odieresis,oslash,oe"
	k="152" />
    <hkern g1="V"
	g2="hyphen"
	k="113" />
    <hkern g1="V"
	g2="a,agrave,aacute,acircumflex,atilde,adieresis,aring,ae"
	k="113" />
    <hkern g1="V"
	g2="r"
	k="76" />
    <hkern g1="V"
	g2="u,ugrave,uacute,ucircumflex,udieresis"
	k="76" />
    <hkern g1="V"
	g2="colon"
	k="94" />
    <hkern g1="V"
	g2="semicolon"
	k="94" />
    <hkern g1="V"
	g2="i,igrave,iacute,icircumflex,idieresis,dotlessi"
	k="-20" />
    <hkern g1="w"
	g2="comma"
	k="152" />
    <hkern g1="w"
	g2="period"
	k="152" />
    <hkern g1="W"
	g2="A,Agrave,Aacute,Acircumflex,Atilde,Adieresis,Aring,AE"
	k="51" />
    <hkern g1="W"
	g2="comma"
	k="188" />
    <hkern g1="W"
	g2="period"
	k="188" />
    <hkern g1="W"
	g2="e,egrave,eacute,ecircumflex,edieresis"
	k="113" />
    <hkern g1="W"
	g2="o,ograve,oacute,ocircumflex,otilde,odieresis,oslash,oe"
	k="113" />
    <hkern g1="W"
	g2="hyphen"
	k="57" />
    <hkern g1="W"
	g2="a,agrave,aacute,acircumflex,atilde,adieresis,aring,ae"
	k="76" />
    <hkern g1="W"
	g2="r"
	k="37" />
    <hkern g1="W"
	g2="u,ugrave,uacute,ucircumflex,udieresis"
	k="37" />
    <hkern g1="W"
	g2="colon"
	k="37" />
    <hkern g1="W"
	g2="semicolon"
	k="37" />
    <hkern g1="y,yacute,ydieresis"
	g2="comma"
	k="188" />
    <hkern g1="y,yacute,ydieresis"
	g2="period"
	k="188" />
    <hkern g1="Y,Yacute,Ydieresis"
	g2="v"
	k="113" />
    <hkern g1="Y,Yacute,Ydieresis"
	g2="A,Agrave,Aacute,Acircumflex,Atilde,Adieresis,Aring,AE"
	k="188" />
    <hkern g1="Y,Yacute,Ydieresis"
	g2="comma"
	k="227" />
    <hkern g1="Y,Yacute,Ydieresis"
	g2="period"
	k="227" />
    <hkern g1="Y,Yacute,Ydieresis"
	g2="e,egrave,eacute,ecircumflex,edieresis"
	k="227" />
    <hkern g1="Y,Yacute,Ydieresis"
	g2="o,ograve,oacute,ocircumflex,otilde,odieresis,oslash,oe"
	k="227" />
    <hkern g1="Y,Yacute,Ydieresis"
	g2="q"
	k="213" />
    <hkern g1="Y,Yacute,Ydieresis"
	g2="hyphen"
	k="227" />
    <hkern g1="Y,Yacute,Ydieresis"
	g2="a,agrave,aacute,acircumflex,atilde,adieresis,aring,ae"
	k="227" />
    <hkern g1="Y,Yacute,Ydieresis"
	g2="u,ugrave,uacute,ucircumflex,udieresis"
	k="176" />
    <hkern g1="Y,Yacute,Ydieresis"
	g2="colon"
	k="188" />
    <hkern g1="Y,Yacute,Ydieresis"
	g2="semicolon"
	k="188" />
    <hkern g1="Y,Yacute,Ydieresis"
	g2="i,igrave,iacute,icircumflex,idieresis,dotlessi"
	k="18" />
    <hkern g1="Y,Yacute,Ydieresis"
	g2="p"
	k="176" />
    <hkern g1="quoteright"
	g2="s,scaron"
	k="152" />
    <hkern g1="quoteright"
	g2="t"
	k="37" />
  </font>
</defs></svg>
